[gd_scene load_steps=2 format=2]

[ext_resource path="res://sfx/ruin_door_open.wav" type="AudioStream" id=1]

[node name="door_open_sfx" type="AudioStreamPlayer2D"]
position = Vector2( 490, 300 )
stream = ExtResource( 1 )
volume_db = 4.0
