[gd_scene load_steps=2 format=2]

[ext_resource path="res://sfx/sfx-walk1.wav" type="AudioStream" id=1]

[node name="AudioStreamPlayer2D" type="AudioStreamPlayer2D"]
stream = ExtResource( 1 )
volume_db = 3.0
