[gd_scene load_steps=8 format=2]

[ext_resource path="res://Cardon_Debug_Map.gd" type="Script" id=1]
[ext_resource path="res://Message_handler.gd" type="Script" id=2]
[ext_resource path="res://Maps/5_Islands/Sealos_4/Sealos_4_Town.tscn" type="PackedScene" id=3]
[ext_resource path="res://Models/NPCs/Roll.tscn" type="PackedScene" id=4]
[ext_resource path="res://Maps/Cardon/Cardon_Map.tscn" type="PackedScene" id=6]
[ext_resource path="res://Global_Audio.tscn" type="PackedScene" id=9]
[ext_resource path="res://Player/Player.tscn" type="PackedScene" id=10]

[node name="Game" type="Spatial"]
transform = Transform( 1, 0, 0, 0, 1, 0, 0, 0, 1, 0, 2.49229, 0 )
script = ExtResource( 1 )

[node name="Global_Audio" parent="." instance=ExtResource( 9 )]

[node name="Message_handler" type="Node2D" parent="."]
position = Vector2( 10, 10 )
script = ExtResource( 2 )

[node name="bullet_handler" type="Node" parent="."]

[node name="Player" parent="." instance=ExtResource( 10 )]
transform = Transform( 0.68, 0, 0, 0, 0.68, 0, 0, 0, 0.68, 227.834, -58.4855, 38.1026 )

[node name="Room_Handler" type="Spatial" parent="."]

[node name="town" parent="." instance=ExtResource( 3 )]
transform = Transform( 0.75, 0, 0, 0, 0.75, 0, 0, 0, 0.75, 103.658, 0, 0 )

[node name="Roll" parent="." instance=ExtResource( 4 )]
transform = Transform( 0.017, 0, 0, 0, 0.017, 0, 0, 0, 0.017, 121.402, 0.102288, -34.8087 )

[node name="Cardon_Map" parent="." instance=ExtResource( 6 )]
transform = Transform( 1, 0, 0, 0, 1, 0, 0, 0, 1, 220.526, -58.9827, 34.1593 )
