[gd_resource type="Environment" format=2]

[resource]
resource_local_to_scene = true
background_mode = 1
background_color = Color( 0.054902, 0.45098, 0.913725, 1 )
ambient_light_color = Color( 1, 1, 1, 1 )
ambient_light_energy = 0.25
ambient_light_sky_contribution = 0.25
fog_enabled = true
fog_color = Color( 1, 1, 1, 1 )
fog_sun_color = Color( 1, 1, 1, 1 )
fog_sun_amount = 0.25
fog_depth_begin = 50.0
fog_depth_curve = 0.287175
fog_transmit_curve = 0.68302
fog_height_curve = 0.406126
tonemap_mode = 3
tonemap_exposure = 0.7
auto_exposure_min_luma = 0.1
auto_exposure_max_luma = 16.0
ssao_enabled = true
dof_blur_far_distance = 40.0
dof_blur_far_transition = 25.0
glow_enabled = true
glow_strength = 0.25
glow_bloom = 0.5
glow_hdr_threshold = 2.0
glow_hdr_scale = 1.0
glow_bicubic_upscale = true
adjustment_enabled = true
adjustment_contrast = 1.1
adjustment_saturation = 1.1
