[gd_scene load_steps=8 format=2]

[ext_resource path="res://Globals.gd" type="Script" id=1]
[ext_resource path="res://gui/hp_bar1.png" type="Texture" id=2]
[ext_resource path="res://gui/hp_tex.png" type="Texture" id=3]
[ext_resource path="res://gui/red_hp.png" type="Texture" id=4]
[ext_resource path="res://gui/wpn_bar1.png" type="Texture" id=5]

[sub_resource type="SpriteFrames" id=1]
animations = [ {
"frames": [ ExtResource( 2 ), ExtResource( 4 ) ],
"loop": true,
"name": "hp_bar",
"speed": 5.0
} ]

[sub_resource type="SpriteFrames" id=2]
animations = [ {
"frames": [ ExtResource( 5 ) ],
"loop": true,
"name": "wpn_bar",
"speed": 5.0
} ]

[node name="Globals" type="Node2D"]
pause_mode = 2
script = ExtResource( 1 )

[node name="hp_bar" type="AnimatedSprite" parent="."]
position = Vector2( 24.9697, 405.151 )
scale = Vector2( 2, 2 )
frames = SubResource( 1 )
animation = "hp_bar"
speed_scale = 0.0
playing = true
centered = false

[node name="hp_progress" type="TextureProgress" parent="hp_bar"]
margin_left = 16.0399
margin_top = 14.9272
margin_right = 24.0399
margin_bottom = 22.9272
rect_scale = Vector2( 0.5, 3.5 )
size_flags_horizontal = 2
size_flags_vertical = 2
max_value = 100.0
step = 1.0
value = 100.0
texture_progress = ExtResource( 3 )
fill_mode = 3
__meta__ = {
"_edit_use_anchors_": false
}

[node name="wp_bar" type="AnimatedSprite" parent="."]
position = Vector2( 960, 512 )
scale = Vector2( 2, 2 )
frames = SubResource( 2 )
animation = "wpn_bar"
