[gd_scene load_steps=2 format=2]

[ext_resource path="res://Player/MM_Battle.glb" type="PackedScene" id=1]

[node name="MM_Battle" index="0" instance=ExtResource( 1 )]

[node name="Mesh" parent="Mesh 3" index="1"]
visible = false

[node name="Mesh 2" parent="Mesh 3" index="2"]
visible = false
