[gd_scene load_steps=3 format=2]

[ext_resource path="res://Models/Buildings/house1/da750_High.glb" type="PackedScene" id=1]

[sub_resource type="ConcavePolygonShape" id=1]
data = PoolVector3Array( -1.6, 0, 0, 1.6, 0, -3.2, 1.6, 0, 0, -1.6, 0, -3.2, 1.6, 0, -3.2, -1.6, 0, 0, 1.6, 0, 0, -1.6, 0, 3.2, -1.6, 0, 0, 1.6, 0, 3.2, -1.6, 0, 3.2, 1.6, 0, 0, 0.5, 2.3, -3, -0.8, 2.9, -3, -1.4, 2.3, -3, -0.1, 2.9, -3, -0.8, 2.9, -3, 0.5, 2.3, -3, -1.4, 0, -3, -1.4, 1.2, -1, -1.4, 0, -1, -1.4, 1.2, -3, -1.4, 1.2, -1, -1.4, 0, -3, -1.4, 1.2, -3, 0.5, 0, -3, 0.5, 1.2, -3, -1.4, 0, -3, 0.5, 0, -3, -1.4, 1.2, -3, 0.5, 1.2, 1, -1.4, 0, 1, -1.4, 1.2, 1, 0.5, 0, 1, -1.4, 0, 1, 0.5, 1.2, 1, 0.5, 1.2, -3, 0.5, 0, -1, 0.5, 1.2, -1, 0.5, 0, -3, 0.5, 0, -1, 0.5, 1.2, -3, -1.4, 1.2, 1, -1.4, 0, -1, -1.4, 1.2, -1, -1.4, 0, 1, -1.4, 0, -1, -1.4, 1.2, 1, -1.4, 2.3, 1, -0.1, 2.9, 1, 0.5, 2.3, 1, -0.8, 2.9, 1, -0.1, 2.9, 1, -1.4, 2.3, 1, -1.4, 2.3, 1, -1.4, 1.2, -1, -1.4, 2.3, -1, -1.4, 1.2, 1, -1.4, 1.2, -1, -1.4, 2.3, 1, 0.5, 1.2, 1, 0.5, 2.3, -1, 0.5, 1.2, -1, 0.5, 2.3, 1, 0.5, 2.3, -1, 0.5, 1.2, 1, -1.4, 1.2, -3, -1.4, 2.3, -1, -1.4, 1.2, -1, -1.4, 2.3, -3, -1.4, 2.3, -1, -1.4, 1.2, -3, -1.4, 2.3, -3, 0.5, 1.2, -3, 0.5, 2.3, -3, -1.4, 1.2, -3, 0.5, 1.2, -3, -1.4, 2.3, -3, 0.5, 2.3, -3, 0.5, 1.2, -1, 0.5, 2.3, -1, 0.5, 1.2, -3, 0.5, 1.2, -1, 0.5, 2.3, -3, 0.5, 2.3, 1, -1.4, 1.2, 1, -1.4, 2.3, 1, 0.5, 1.2, 1, -1.4, 1.2, 1, 0.5, 2.3, 1, 0.5, 0, 1, 0.5, 1.2, -1, 0.5, 0, -1, 0.5, 1.2, 1, 0.5, 1.2, -1, 0.5, 0, 1, -0.8, 2.9, 1, -1.4, 2.3, -1, -0.8, 2.9, -1, -1.4, 2.3, 1, -1.4, 2.3, -1, -0.8, 2.9, 1, -0.1, 2.9, -3, 0.5, 2.3, -1, -0.1, 2.9, -1, 0.5, 2.3, -3, 0.5, 2.3, -1, -0.1, 2.9, -3, -0.1, 2.9, -1, -0.8, 2.9, -3, -0.1, 2.9, -3, -0.8, 2.9, -1, -0.8, 2.9, -3, -0.1, 2.9, -1, -0.8, 2.9, -1, -1.4, 2.3, -3, -0.8, 2.9, -3, -1.4, 2.3, -1, -1.4, 2.3, -3, -0.8, 2.9, -1, -0.1, 2.9, 1, -0.8, 2.9, -1, -0.1, 2.9, -1, -0.8, 2.9, 1, -0.8, 2.9, -1, -0.1, 2.9, 1, -0.1, 2.9, -1, 0.5, 2.3, 1, -0.1, 2.9, 1, 0.5, 2.3, -1, 0.5, 2.3, 1, -0.1, 2.9, -1 )

[node name="House1" instance=ExtResource( 1 )]

[node name="Mesh" parent="da750_High" index="0"]
visible = false

[node name="StaticBody" type="StaticBody" parent="da750_High" index="1"]

[node name="CollisionShape" type="CollisionShape" parent="da750_High/StaticBody" index="0"]
shape = SubResource( 1 )
