<?xml version="1.0"?>
<COLLADA version="1.4.0" xmlns="http://www.collada.org/2005/11/COLLADASchema">
<asset>
<contributor>
<author>Wings3D Collada Exporter</author>
<authoring_tool>Wings3D 2.1.7 Collada Exporter</authoring_tool>
<comments/>
<copyright/>
<source_data/>
</contributor>
<created>2019-06-15T04:24:54</created>
<modified>2019-06-15T04:24:54</modified>
<unit meter="0.01" name="centimeter"/>
<up_axis>Y_UP</up_axis>
</asset>
<library_effects><effect id="Default-fx" name="Default-fx"><profile_COMMON><technique sid="wings3d"><phong><emission><color>0.000000 0.000000 0.000000 1.000000
</color></emission><ambient><color>1.000000 1.000000 1.000000 1.000000
</color></ambient><diffuse><color>1.000000 1.000000 1.000000 1.000000
</color></diffuse><specular><color>0.000000 0.000000 0.000000 1.000000
</color></specular><shininess><float>0.900000</float></shininess></phong></technique></profile_COMMON></effect><effect id="F_SKY1-fx" name="F_SKY1-fx"><profile_COMMON><newparam sid="F_SKY1_PNG-surface"><surface type="2D"><init_from>F_SKY1_PNG-img</init_from><format>A8R8G8B8</format></surface></newparam><newparam sid="F_SKY1_PNG-sampler"><sampler2D><source>F_SKY1_PNG-surface</source><minfilter>LINEAR_MIPMAP_LINEAR</minfilter><magfilter>LINEAR</magfilter></sampler2D></newparam><technique sid="wings3d"><phong><emission><color>0.000000 0.000000 0.000000 1.000000
</color></emission><ambient><color>1.000000 1.000000 1.000000 1.000000
</color></ambient><diffuse><texture texcoord="CHANNEL1" texture="F_SKY1_PNG-sampler"/></diffuse><specular><color>0.000000 0.000000 0.000000 1.000000
</color></specular><shininess><float>0.900000</float></shininess></phong></technique></profile_COMMON></effect><effect id="KITO_FL1-fx" name="KITO_FL1-fx"><profile_COMMON><newparam sid="KITO_FL1_PNG-surface"><surface type="2D"><init_from>KITO_FL1_PNG-img</init_from><format>A8R8G8B8</format></surface></newparam><newparam sid="KITO_FL1_PNG-sampler"><sampler2D><source>KITO_FL1_PNG-surface</source><minfilter>LINEAR_MIPMAP_LINEAR</minfilter><magfilter>LINEAR</magfilter></sampler2D></newparam><technique sid="wings3d"><phong><emission><color>0.000000 0.000000 0.000000 1.000000
</color></emission><ambient><color>1.000000 1.000000 1.000000 1.000000
</color></ambient><diffuse><texture texcoord="CHANNEL1" texture="KITO_FL1_PNG-sampler"/></diffuse><specular><color>0.000000 0.000000 0.000000 1.000000
</color></specular><shininess><float>0.900000</float></shininess></phong></technique></profile_COMMON></effect><effect id="KITO_FL3-fx" name="KITO_FL3-fx"><profile_COMMON><newparam sid="KITO_FL2_FLAT_PNG-surface"><surface type="2D"><init_from>KITO_FL2_FLAT_PNG-img</init_from><format>A8R8G8B8</format></surface></newparam><newparam sid="KITO_FL2_FLAT_PNG-sampler"><sampler2D><source>KITO_FL2_FLAT_PNG-surface</source><minfilter>LINEAR_MIPMAP_LINEAR</minfilter><magfilter>LINEAR</magfilter></sampler2D></newparam><technique sid="wings3d"><phong><emission><color>0.000000 0.000000 0.000000 1.000000
</color></emission><ambient><color>1.000000 1.000000 1.000000 1.000000
</color></ambient><diffuse><texture texcoord="CHANNEL1" texture="KITO_FL2_FLAT_PNG-sampler"/></diffuse><specular><color>0.000000 0.000000 0.000000 1.000000
</color></specular><shininess><float>0.900000</float></shininess></phong></technique></profile_COMMON></effect><effect id="KITO_FL4-fx" name="KITO_FL4-fx"><profile_COMMON><newparam sid="KITO_FL3_PNG-surface"><surface type="2D"><init_from>KITO_FL3_PNG-img</init_from><format>A8R8G8B8</format></surface></newparam><newparam sid="KITO_FL3_PNG-sampler"><sampler2D><source>KITO_FL3_PNG-surface</source><minfilter>LINEAR_MIPMAP_LINEAR</minfilter><magfilter>LINEAR</magfilter></sampler2D></newparam><technique sid="wings3d"><phong><emission><color>0.000000 0.000000 0.000000 1.000000
</color></emission><ambient><color>1.000000 1.000000 1.000000 1.000000
</color></ambient><diffuse><texture texcoord="CHANNEL1" texture="KITO_FL3_PNG-sampler"/></diffuse><specular><color>0.000000 0.000000 0.000000 1.000000
</color></specular><shininess><float>0.900000</float></shininess></phong></technique></profile_COMMON></effect><effect id="KITO_RF-fx" name="KITO_RF-fx"><profile_COMMON><newparam sid="KITO_RF_PNG-surface"><surface type="2D"><init_from>KITO_RF_PNG-img</init_from><format>A8R8G8B8</format></surface></newparam><newparam sid="KITO_RF_PNG-sampler"><sampler2D><source>KITO_RF_PNG-surface</source><minfilter>LINEAR_MIPMAP_LINEAR</minfilter><magfilter>LINEAR</magfilter></sampler2D></newparam><technique sid="wings3d"><phong><emission><color>0.000000 0.000000 0.000000 1.000000
</color></emission><ambient><color>1.000000 1.000000 1.000000 1.000000
</color></ambient><diffuse><texture texcoord="CHANNEL1" texture="KITO_RF_PNG-sampler"/></diffuse><specular><color>0.000000 0.000000 0.000000 1.000000
</color></specular><shininess><float>0.900000</float></shininess></phong></technique></profile_COMMON></effect><effect id="KITO_W2-fx" name="KITO_W2-fx"><profile_COMMON><newparam sid="KITO_W2_PNG-surface"><surface type="2D"><init_from>KITO_W2_PNG-img</init_from><format>A8R8G8B8</format></surface></newparam><newparam sid="KITO_W2_PNG-sampler"><sampler2D><source>KITO_W2_PNG-surface</source><minfilter>LINEAR_MIPMAP_LINEAR</minfilter><magfilter>LINEAR</magfilter></sampler2D></newparam><technique sid="wings3d"><phong><emission><color>0.000000 0.000000 0.000000 1.000000
</color></emission><ambient><color>1.000000 1.000000 1.000000 1.000000
</color></ambient><diffuse><texture texcoord="CHANNEL1" texture="KITO_W2_PNG-sampler"/></diffuse><specular><color>0.000000 0.000000 0.000000 1.000000
</color></specular><shininess><float>0.900000</float></shininess></phong></technique></profile_COMMON></effect><effect id="KITO_W4-fx" name="KITO_W4-fx"><profile_COMMON><newparam sid="KITO_W3_FLAT_PNG-surface"><surface type="2D"><init_from>KITO_W3_FLAT_PNG-img</init_from><format>A8R8G8B8</format></surface></newparam><newparam sid="KITO_W3_FLAT_PNG-sampler"><sampler2D><source>KITO_W3_FLAT_PNG-surface</source><minfilter>LINEAR_MIPMAP_LINEAR</minfilter><magfilter>LINEAR</magfilter></sampler2D></newparam><technique sid="wings3d"><phong><emission><color>0.000000 0.000000 0.000000 1.000000
</color></emission><ambient><color>1.000000 1.000000 1.000000 1.000000
</color></ambient><diffuse><texture texcoord="CHANNEL1" texture="KITO_W3_FLAT_PNG-sampler"/></diffuse><specular><color>0.000000 0.000000 0.000000 1.000000
</color></specular><shininess><float>0.900000</float></shininess></phong></technique></profile_COMMON></effect><effect id="KITO_W5-fx" name="KITO_W5-fx"><profile_COMMON><newparam sid="KITO_W5_PNG-surface"><surface type="2D"><init_from>KITO_W5_PNG-img</init_from><format>A8R8G8B8</format></surface></newparam><newparam sid="KITO_W5_PNG-sampler"><sampler2D><source>KITO_W5_PNG-surface</source><minfilter>LINEAR_MIPMAP_LINEAR</minfilter><magfilter>LINEAR</magfilter></sampler2D></newparam><technique sid="wings3d"><phong><emission><color>0.000000 0.000000 0.000000 1.000000
</color></emission><ambient><color>1.000000 1.000000 1.000000 1.000000
</color></ambient><diffuse><texture texcoord="CHANNEL1" texture="KITO_W5_PNG-sampler"/></diffuse><specular><color>0.000000 0.000000 0.000000 1.000000
</color></specular><shininess><float>0.900000</float></shininess></phong></technique></profile_COMMON></effect><effect id="MTL_TEX2-fx" name="MTL_TEX2-fx"><profile_COMMON><newparam sid="MTL_TEX_FLAT_PNG-surface"><surface type="2D"><init_from>MTL_TEX_FLAT_PNG-img</init_from><format>A8R8G8B8</format></surface></newparam><newparam sid="MTL_TEX_FLAT_PNG-sampler"><sampler2D><source>MTL_TEX_FLAT_PNG-surface</source><minfilter>LINEAR_MIPMAP_LINEAR</minfilter><magfilter>LINEAR</magfilter></sampler2D></newparam><technique sid="wings3d"><phong><emission><color>0.000000 0.000000 0.000000 1.000000
</color></emission><ambient><color>1.000000 1.000000 1.000000 1.000000
</color></ambient><diffuse><texture texcoord="CHANNEL1" texture="MTL_TEX_FLAT_PNG-sampler"/></diffuse><specular><color>0.000000 0.000000 0.000000 1.000000
</color></specular><shininess><float>0.900000</float></shininess></phong></technique></profile_COMMON></effect><effect id="PIT-fx" name="PIT-fx"><profile_COMMON><newparam sid="PIT_PNG-surface"><surface type="2D"><init_from>PIT_PNG-img</init_from><format>A8R8G8B8</format></surface></newparam><newparam sid="PIT_PNG-sampler"><sampler2D><source>PIT_PNG-surface</source><minfilter>LINEAR_MIPMAP_LINEAR</minfilter><magfilter>LINEAR</magfilter></sampler2D></newparam><technique sid="wings3d"><phong><emission><color>0.000000 0.000000 0.000000 1.000000
</color></emission><ambient><color>1.000000 1.000000 1.000000 1.000000
</color></ambient><diffuse><texture texcoord="CHANNEL1" texture="PIT_PNG-sampler"/></diffuse><specular><color>0.000000 0.000000 0.000000 1.000000
</color></specular><shininess><float>0.900000</float></shininess></phong></technique></profile_COMMON></effect><effect id="SWG-fx" name="SWG-fx"><profile_COMMON><newparam sid="SWG_PNG-surface"><surface type="2D"><init_from>SWG_PNG-img</init_from><format>A8R8G8B8</format></surface></newparam><newparam sid="SWG_PNG-sampler"><sampler2D><source>SWG_PNG-surface</source><minfilter>LINEAR_MIPMAP_LINEAR</minfilter><magfilter>LINEAR</magfilter></sampler2D></newparam><technique sid="wings3d"><phong><emission><color>0.000000 0.000000 0.000000 1.000000
</color></emission><ambient><color>1.000000 1.000000 1.000000 1.000000
</color></ambient><diffuse><texture texcoord="CHANNEL1" texture="SWG_PNG-sampler"/></diffuse><specular><color>0.000000 0.000000 0.000000 1.000000
</color></specular><shininess><float>0.900000</float></shininess></phong></technique></profile_COMMON></effect></library_effects>
<library_images><image id="F_SKY1_PNG-img" name="F_SKY1_PNG-img"><init_from>F_SKY1.PNG</init_from></image><image id="KITO_FL1_PNG-img" name="KITO_FL1_PNG-img"><init_from>KITO_FL1.PNG</init_from></image><image id="KITO_FL2_FLAT_PNG-img" name="KITO_FL2_FLAT_PNG-img"><init_from>KITO_FL2_FLAT.PNG</init_from></image><image id="KITO_FL3_PNG-img" name="KITO_FL3_PNG-img"><init_from>KITO_FL3.PNG</init_from></image><image id="KITO_RF_PNG-img" name="KITO_RF_PNG-img"><init_from>KITO_RF.PNG</init_from></image><image id="KITO_W2_PNG-img" name="KITO_W2_PNG-img"><init_from>KITO_W2.PNG</init_from></image><image id="KITO_W3_FLAT_PNG-img" name="KITO_W3_FLAT_PNG-img"><init_from>KITO_W3_FLAT.PNG</init_from></image><image id="KITO_W5_PNG-img" name="KITO_W5_PNG-img"><init_from>KITO_W5.PNG</init_from></image><image id="MTL_TEX_FLAT_PNG-img" name="MTL_TEX_FLAT_PNG-img"><init_from>MTL_TEX_FLAT.PNG</init_from></image><image id="PIT_PNG-img" name="PIT_PNG-img"><init_from>PIT.PNG</init_from></image><image id="SWG_PNG-img" name="SWG_PNG-img"><init_from>SWG.PNG</init_from></image></library_images>
<library_materials><material id="Default" name="Default"><instance_effect url="#Default-fx"/></material><material id="F_SKY1" name="F_SKY1"><instance_effect url="#F_SKY1-fx"/></material><material id="KITO_FL1" name="KITO_FL1"><instance_effect url="#KITO_FL1-fx"/></material><material id="KITO_FL3" name="KITO_FL3"><instance_effect url="#KITO_FL3-fx"/></material><material id="KITO_FL4" name="KITO_FL4"><instance_effect url="#KITO_FL4-fx"/></material><material id="KITO_RF" name="KITO_RF"><instance_effect url="#KITO_RF-fx"/></material><material id="KITO_W2" name="KITO_W2"><instance_effect url="#KITO_W2-fx"/></material><material id="KITO_W4" name="KITO_W4"><instance_effect url="#KITO_W4-fx"/></material><material id="KITO_W5" name="KITO_W5"><instance_effect url="#KITO_W5-fx"/></material><material id="MTL_TEX2" name="MTL_TEX2"><instance_effect url="#MTL_TEX2-fx"/></material><material id="PIT" name="PIT"><instance_effect url="#PIT-fx"/></material><material id="SWG" name="SWG"><instance_effect url="#SWG-fx"/></material></library_materials>
<library_geometries><geometry name="MAP02-0" id="MAP02-0"><mesh><source id="MAP02-0-Pos"><float_array id="MAP02-0-Pos-array" count="1977">64.000000 0.000000 -480.000000 64.000000 0.000000 -552.000000 576.000000 0.000000 -552.000000 576.000000 0.000000 -480.000000 -1264.000000 -1.200000 -1160.000000 -1264.000000 0.000000 -1160.000000 -1280.000000 0.000000 -1160.000000 -1280.000000 -1.200000 -1160.000000 -1120.000000 -1.200000 -1640.000000 -1120.000000 0.000000 -1640.000000 -640.000000 0.000000 -1640.000000 -640.000000 -1.200000 -1640.000000 -1120.000000 -1.200000 -1480.000000 -1120.000000 0.000000 -1480.000000 -1120.000000 0.000000 -1160.000000 -1120.000000 -1.200000 -1160.000000 -1280.000000 -1.200000 -1640.000000 -1280.000000 0.000000 -1640.000000 -640.000000 -1.200000 -1480.000000 -640.000000 0.000000 -1480.000000 -1136.000000 0.000000 -1160.000000 -1136.000000 -1.200000 -1160.000000 -640.000000 -1.200000 -1496.000000 -640.000000 0.000000 -1496.000000 -640.000000 0.000000 -1624.000000 -640.000000 -1.200000 -1624.000000 64.000000 -1.200000 -480.000000 64.000000 0.000000 -480.000000 64.000000 0.000000 -552.000000 64.000000 -1.200000 -552.000000 576.000000 -1.200000 -552.000000 576.000000 0.000000 -552.000000 576.000000 0.000000 -480.000000 576.000000 -1.200000 -480.000000 608.000000 -1.200000 -688.000000 608.000000 0.000000 -688.000000 1088.000000 0.000000 -688.000000 1088.000000 -1.200000 -688.000000 1088.000000 -1.200000 -552.000000 1088.000000 0.000000 -552.000000 608.000000 0.000000 -552.000000 608.000000 -1.200000 -552.000000 0.000000 -1.200000 -1240.000000 0.000000 0.000000 -1240.000000 -608.000000 0.000000 -1240.000000 -608.000000 -1.200000 -1240.000000 -816.000000 -1.200000 -296.000000 -816.000000 0.000000 -296.000000 -816.000000 0.000000 -280.000000 -816.000000 -1.200000 -280.000000 -320.000000 -1.200000 -280.000000 -320.000000 0.000000 -280.000000 -784.000000 0.000000 -280.000000 -784.000000 -1.200000 -280.000000 -784.000000 -1.200000 -424.000000 -784.000000 0.000000 -424.000000 -784.000000 0.000000 -440.000000 -784.000000 -1.200000 -440.000000 -784.000000 0.000000 -296.000000 -784.000000 -1.200000 -296.000000 -144.000000 -1.200000 0.000000 -144.000000 0.000000 0.000000 -320.000000 0.000000 0.000000 -320.000000 -1.200000 0.000000 -320.000000 0.000000 -440.000000 -320.000000 -1.200000 -440.000000 -1568.000000 -1.200000 -280.000000 -1568.000000 0.000000 -280.000000 -1568.000000 0.000000 -792.000000 -1568.000000 -1.200000 -792.000000 -816.000000 -1.200000 -792.000000 -816.000000 0.000000 -792.000000 -816.000000 0.000000 -424.000000 -816.000000 -1.200000 -424.000000 -144.000000 0.000000 -440.000000 -144.000000 -1.200000 -440.000000 -144.000000 0.000000 -160.000000 -144.000000 -1.200000 -160.000000 -1008.000000 -1.200000 -1128.000000 -1008.000000 0.000000 -1128.000000 -1008.000000 0.000000 -824.000000 -1008.000000 -1.200000 -824.000000 -1392.000000 -1.200000 -824.000000 -1392.000000 0.000000 -824.000000 -1392.000000 0.000000 -1128.000000 -1392.000000 -1.200000 -1128.000000 -1168.000000 0.000000 -824.000000 -1168.000000 -1.200000 -824.000000 -1232.000000 -1.200000 -824.000000 -1232.000000 0.000000 -824.000000 -608.000000 -1.200000 -1624.000000 -608.000000 0.000000 -1624.000000 -608.000000 0.000000 -1720.000000 -608.000000 -1.200000 -1720.000000 -128.000000 -1.200000 -1720.000000 -128.000000 0.000000 -1720.000000 0.000000 0.000000 -1720.000000 0.000000 -1.200000 -1720.000000 -384.000000 -1.200000 -1848.000000 -384.000000 0.000000 -1848.000000 -320.000000 0.000000 -1848.000000 -320.000000 -1.200000 -1848.000000 0.000000 0.000000 -1416.000000 0.000000 -1.200000 -1416.000000 -192.000000 -1.200000 -1848.000000 -192.000000 0.000000 -1848.000000 -128.000000 0.000000 -1848.000000 -128.000000 -1.200000 -1848.000000 -384.000000 0.000000 -1720.000000 -384.000000 -1.200000 -1720.000000 -608.000000 -1.200000 -1416.000000 -608.000000 0.000000 -1416.000000 -608.000000 0.000000 -1496.000000 -608.000000 -1.200000 -1496.000000 -320.000000 -1.200000 -1880.000000 -320.000000 0.000000 -1880.000000 -384.000000 0.000000 -1880.000000 -384.000000 -1.200000 -1880.000000 32.000000 -1.200000 0.000000 32.000000 0.000000 0.000000 32.000000 -1.200000 -160.000000 32.000000 0.000000 -160.000000 32.000000 0.000000 -112.000000 32.000000 -1.200000 -112.000000 -384.000000 0.000000 -2136.000000 -384.000000 -1.200000 -2136.000000 -128.000000 -1.200000 -2136.000000 -128.000000 0.000000 -2136.000000 -128.000000 0.000000 -1880.000000 -128.000000 -1.200000 -1880.000000 -192.000000 0.000000 -1880.000000 -192.000000 -1.200000 -1880.000000 576.000000 -1.200000 -688.000000 576.000000 0.000000 -688.000000 576.000000 0.000000 -684.000000 576.000000 -1.200000 -684.000000 64.000000 -1.200000 0.000000 64.000000 0.000000 0.000000 64.000000 0.000000 -48.000000 64.000000 -1.200000 -48.000000 32.000000 -1.200000 -48.000000 32.000000 0.000000 -48.000000 64.000000 -1.200000 -112.000000 64.000000 0.000000 -112.000000 576.000000 0.000000 0.000000 576.000000 -1.200000 0.000000 64.000000 0.000000 -688.000000 64.000000 -1.200000 -688.000000 172.000000 -1.200000 -856.000000 172.000000 0.000000 -856.000000 172.000000 0.000000 -720.000000 172.000000 -1.200000 -720.000000 36.000000 -1.200000 -720.000000 36.000000 0.000000 -720.000000 36.000000 0.000000 -856.000000 36.000000 -1.200000 -856.000000 72.000000 -1.200000 -720.000000 72.000000 0.000000 -720.000000 36.000000 0.000000 -992.000000 36.000000 -1.200000 -992.000000 456.000000 -1.200000 -856.000000 456.000000 0.000000 -856.000000 456.000000 0.000000 -992.000000 456.000000 -1.200000 -992.000000 608.000000 -1.200000 -684.000000 608.000000 0.000000 -684.000000 576.000000 -1.200000 -556.000000 576.000000 0.000000 -556.000000 608.000000 0.000000 -556.000000 608.000000 -1.200000 -556.000000 1504.000000 -1.200000 -768.000000 1504.000000 0.000000 -768.000000 1504.000000 0.000000 -458.000000 1504.000000 -1.200000 -458.000000 1120.000000 -1.200000 -458.000000 1120.000000 0.000000 -458.000000 1120.000000 0.000000 -556.000000 1120.000000 -1.200000 -556.000000 1120.000000 -1.200000 -684.000000 1120.000000 0.000000 -684.000000 1120.000000 0.000000 -768.000000 1120.000000 -1.200000 -768.000000 384.000000 0.000000 0.000000 264.000000 0.000000 0.000000 -1232.000000 -1.200000 -792.000000 -1232.000000 0.000000 -792.000000 -1168.000000 0.000000 -792.000000 -1168.000000 -1.200000 -792.000000 -1264.000000 -1.200000 -1128.000000 -1264.000000 0.000000 -1128.000000 -1136.000000 0.000000 -1128.000000 -1136.000000 -1.200000 -1128.000000 72.000000 -1.200000 -688.000000 72.000000 0.000000 -688.000000 136.000000 -1.200000 -720.000000 136.000000 0.000000 -720.000000 136.000000 0.000000 -688.000000 136.000000 -1.200000 -688.000000 1088.000000 0.000000 -556.000000 1088.000000 -1.200000 -556.000000 1088.000000 -1.200000 -684.000000 1088.000000 0.000000 -684.000000 -1264.000000 0.000000 -792.000000 -1264.000000 -1.200000 -792.000000 -1136.000000 -1.200000 -792.000000 -1136.000000 0.000000 -792.000000 -320.000000 0.000000 -2136.000000 -320.000000 -1.200000 -2136.000000 -192.000000 0.000000 -2136.000000 -192.000000 -1.200000 -2136.000000 200.000000 -1.200000 -688.000000 200.000000 0.000000 -688.000000 384.000000 -1.200000 0.000000 264.000000 -1.200000 0.000000 -1280.000000 -1.200000 -1640.000000 -1280.000000 0.000000 -1640.000000 -1568.000000 0.000000 -792.000000 -1568.000000 -1.200000 -792.000000 -384.000000 0.000000 -2136.000000 -384.000000 -1.200000 -2136.000000 576.000000 0.000000 0.000000 576.000000 -1.200000 0.000000 -1024.000000 9.600000 -408.000000 -1024.000000 288.000000 -408.000000 -1344.000000 288.000000 -408.000000 -1344.000000 9.600000 -408.000000 -1024.000000 9.600000 -664.000000 -1024.000000 288.000000 -664.000000 -816.000000 288.000000 -296.000000 -1344.000000 9.600000 -664.000000 -1344.000000 288.000000 -664.000000 -816.000000 9.600000 -280.000000 -816.000000 288.000000 -280.000000 -816.000000 9.600000 -296.000000 -1568.000000 9.600000 -792.000000 -1568.000000 288.000000 -792.000000 -1568.000000 288.000000 -280.000000 -1568.000000 9.600000 -280.000000 -816.000000 288.000000 -792.000000 -816.000000 9.600000 -792.000000 -1264.000000 9.600000 -792.000000 -1264.000000 288.000000 -792.000000 -1232.000000 9.600000 -792.000000 -1232.000000 288.000000 -792.000000 -1568.000000 288.000000 -664.000000 -1568.000000 9.600000 -664.000000 -1568.000000 9.600000 -792.000000 -1568.000000 288.000000 -792.000000 -144.000000 9.600000 0.000000 -144.000000 165.600000 0.000000 32.000000 165.600000 0.000000 32.000000 9.600000 0.000000 32.000000 9.600000 -112.000000 32.000000 165.600000 -112.000000 32.000000 165.600000 -160.000000 32.000000 9.600000 -160.000000 -144.000000 165.600000 -160.000000 -144.000000 9.600000 -160.000000 32.000000 165.600000 -48.000000 32.000000 9.600000 -48.000000 -320.000000 9.600000 0.000000 -320.000000 165.600000 0.000000 -320.000000 9.600000 -280.000000 -320.000000 165.600000 -280.000000 -144.000000 9.600000 -440.000000 -144.000000 165.600000 -440.000000 -320.000000 165.600000 -440.000000 -320.000000 9.600000 -440.000000 -784.000000 9.600000 -280.000000 -784.000000 165.600000 -280.000000 -784.000000 9.600000 -440.000000 -784.000000 165.600000 -440.000000 -784.000000 165.600000 -424.000000 -784.000000 9.600000 -424.000000 -784.000000 9.600000 -296.000000 -784.000000 165.600000 -296.000000 -192.000000 326.400000 -1848.000000 -320.000000 326.400000 -1848.000000 -128.000000 9.600000 -1720.000000 -128.000000 326.400000 -1720.000000 -128.000000 326.400000 -1848.000000 -128.000000 9.600000 -1848.000000 -384.000000 9.600000 -1848.000000 -384.000000 326.400000 -1848.000000 -384.000000 326.400000 -1720.000000 -384.000000 9.600000 -1720.000000 -608.000000 175.200000 -1240.000000 -608.000000 326.400000 -1240.000000 0.000000 326.400000 -1240.000000 0.000000 175.200000 -1240.000000 0.000000 326.400000 -1416.000000 0.000000 175.200000 -1416.000000 -608.000000 175.200000 -1416.000000 -608.000000 326.400000 -1416.000000 -608.000000 326.400000 -1624.000000 -608.000000 9.600000 -1720.000000 -608.000000 326.400000 -1720.000000 -608.000000 9.600000 -1624.000000 0.000000 9.600000 -1720.000000 0.000000 326.400000 -1720.000000 0.000000 9.600000 -1416.000000 -608.000000 9.600000 -1416.000000 -320.000000 9.600000 -1848.000000 -192.000000 9.600000 -1848.000000 64.000000 0.000000 -480.000000 576.000000 0.000000 -480.000000 64.000000 8.400001 -48.000000 384.000000 0.000000 0.000000 384.000000 8.400001 0.000000 384.000000 8.400001 -480.000000 384.000000 0.000000 -480.000000 264.000000 0.000000 -480.000000 264.000000 8.400001 -480.000000 264.000000 8.400001 0.000000 264.000000 0.000000 0.000000 64.000000 8.400001 -480.000000 576.000000 8.400001 -480.000000 384.000000 326.400000 0.000000 576.000000 326.400000 0.000000 576.000000 8.400001 0.000000 64.000000 326.400000 -48.000000 64.000000 326.400000 0.000000 64.000000 8.400001 0.000000 64.000000 326.400000 -480.000000 576.000000 326.400000 -480.000000 264.000000 326.400000 0.000000 264.000000 326.400000 -480.000000 384.000000 326.400000 -480.000000 -1136.000000 9.600000 -1160.000000 -640.000000 156.000000 -1496.000000 -640.000000 156.000000 -1624.000000 -640.000000 9.600000 -1640.000000 -640.000000 156.000000 -1640.000000 -1120.000000 156.000000 -1640.000000 -1120.000000 9.600000 -1640.000000 -1120.000000 9.600000 -1480.000000 -1120.000000 156.000000 -1480.000000 -640.000000 156.000000 -1480.000000 -640.000000 9.600000 -1480.000000 -640.000000 9.600000 -1496.000000 -640.000000 9.600000 -1624.000000 -1264.000000 156.000000 -1160.000000 -1136.000000 156.000000 -1160.000000 -1280.000000 9.600000 -1160.000000 -1280.000000 156.000000 -1160.000000 -1264.000000 9.600000 -1160.000000 -1120.000000 9.600000 -1160.000000 -1120.000000 156.000000 -1160.000000 -1280.000000 156.000000 -1640.000000 -1280.000000 9.600000 -1640.000000 64.000000 0.000000 -552.000000 576.000000 0.000000 -552.000000 200.000000 8.400001 -688.000000 200.000000 175.200000 -688.000000 200.000000 175.200000 -552.000000 200.000000 8.400001 -552.000000 576.000000 326.400000 -684.000000 576.000000 8.400001 -552.000000 200.000000 0.000000 -552.000000 64.000000 175.200000 -552.000000 72.000000 175.200000 -688.000000 72.000000 326.400000 -688.000000 64.000000 326.400000 -688.000000 64.000000 175.200000 -688.000000 576.000000 8.400001 -684.000000 576.000000 8.400001 -688.000000 576.000000 326.400000 -688.000000 200.000000 326.400000 -688.000000 576.000000 326.400000 -552.000000 64.000000 326.400000 -552.000000 200.000000 326.400000 -552.000000 136.000000 175.200000 -720.000000 72.000000 175.200000 -720.000000 36.000000 175.200000 -720.000000 36.000000 326.400000 -720.000000 72.000000 326.400000 -720.000000 136.000000 326.400000 -720.000000 172.000000 175.200000 -720.000000 172.000000 326.400000 -720.000000 172.000000 326.400000 -856.000000 172.000000 175.200000 -856.000000 36.000000 175.200000 -856.000000 36.000000 326.400000 -856.000000 36.000000 175.200000 -992.000000 36.000000 326.400000 -992.000000 456.000000 326.400000 -856.000000 456.000000 175.200000 -856.000000 456.000000 326.400000 -992.000000 456.000000 175.200000 -992.000000 -384.000000 9.600000 -1880.000000 -384.000000 1257.600000 -1880.000000 -320.000000 1257.600000 -1880.000000 -320.000000 9.600000 -1880.000000 -384.000000 9.600000 -2136.000000 -384.000000 1257.600000 -2136.000000 -128.000000 9.600000 -1880.000000 -128.000000 1257.600000 -1880.000000 -128.000000 1257.600000 -2136.000000 -128.000000 9.600000 -2136.000000 -192.000000 9.600000 -1880.000000 -192.000000 1257.600000 -1880.000000 -320.000000 9.600000 -2136.000000 -320.000000 1257.600000 -2136.000000 -192.000000 9.600000 -2136.000000 -192.000000 1257.600000 -2136.000000 72.000000 175.200000 -688.000000 72.000000 326.400000 -688.000000 136.000000 165.600000 -720.000000 136.000000 175.200000 -720.000000 72.000000 175.200000 -720.000000 72.000000 165.600000 -720.000000 72.000000 326.400000 -720.000000 72.000000 312.000000 -720.000000 72.000000 312.000000 -688.000000 72.000000 165.600000 -688.000000 136.000000 165.600000 -688.000000 136.000000 312.000000 -688.000000 136.000000 312.000000 -720.000000 136.000000 175.200000 -688.000000 136.000000 326.400000 -688.000000 136.000000 326.400000 -720.000000 608.000000 8.400001 -688.000000 608.000000 326.400000 -688.000000 608.000000 326.400000 -684.000000 608.000000 8.400001 -684.000000 608.000000 8.400001 -556.000000 608.000000 326.400000 -556.000000 608.000000 326.400000 -552.000000 608.000000 8.400001 -552.000000 1088.000000 326.400000 -556.000000 1088.000000 326.400000 -684.000000 1088.000000 8.400001 -684.000000 1088.000000 326.400000 -688.000000 1088.000000 8.400001 -688.000000 1088.000000 326.400000 -552.000000 1088.000000 8.400001 -552.000000 1088.000000 8.400001 -556.000000 -1008.000000 9.600000 -824.000000 -1008.000000 326.400000 -824.000000 -1008.000000 326.400000 -1128.000000 -1008.000000 9.600000 -1128.000000 -1136.000000 326.400000 -1128.000000 -1264.000000 326.400000 -1128.000000 -1392.000000 9.600000 -1128.000000 -1392.000000 326.400000 -1128.000000 -1392.000000 326.400000 -824.000000 -1392.000000 9.600000 -824.000000 -1168.000000 9.600000 -824.000000 -1168.000000 326.400000 -824.000000 -1232.000000 326.400000 -824.000000 -1232.000000 9.600000 -824.000000 -1136.000000 9.600000 -1128.000000 -1264.000000 9.600000 -1128.000000 1120.000000 8.400001 -556.000000 1120.000000 8.400001 -684.000000 1504.000000 8.400001 -458.000000 1504.000000 326.400000 -458.000000 1504.000000 326.400000 -768.000000 1504.000000 8.400001 -768.000000 1120.000000 326.400000 -556.000000 1120.000000 326.400000 -458.000000 1120.000000 8.400001 -458.000000 1120.000000 8.400001 -768.000000 1120.000000 326.400000 -768.000000 1120.000000 326.400000 -684.000000 1120.000000 0.000000 -556.000000 1120.000000 0.000000 -684.000000 1088.000000 165.600000 -556.000000 1088.000000 326.400000 -556.000000 1088.000000 326.400000 -684.000000 1088.000000 165.600000 -684.000000 1088.000000 0.000000 -556.000000 1088.000000 0.000000 -684.000000 1120.000000 165.600000 -556.000000 1120.000000 165.600000 -684.000000 1120.000000 326.400000 -556.000000 1120.000000 326.400000 -684.000000 -1168.000000 0.000000 -824.000000 -1232.000000 0.000000 -824.000000 -1232.000000 0.000000 -792.000000 -1168.000000 0.000000 -792.000000 -1232.000000 146.400000 -824.000000 -1232.000000 146.400000 -792.000000 -1168.000000 146.400000 -792.000000 -1168.000000 146.400000 -824.000000 -1168.000000 326.400000 -824.000000 -1232.000000 326.400000 -824.000000 -1232.000000 288.000000 -792.000000 -1168.000000 288.000000 -792.000000 32.000000 0.000000 -112.000000 64.000000 0.000000 -48.000000 32.000000 0.000000 -48.000000 64.000000 0.000000 -112.000000 32.000000 165.600000 -112.000000 32.000000 165.600000 -48.000000 64.000000 146.400000 -112.000000 32.000000 146.400000 -112.000000 32.000000 146.400000 -48.000000 64.000000 146.400000 -48.000000 64.000000 326.400000 -48.000000 64.000000 326.400000 -112.000000 -640.000000 0.000000 -1496.000000 -640.000000 0.000000 -1624.000000 -608.000000 0.000000 -1624.000000 -608.000000 0.000000 -1496.000000 -640.000000 146.400000 -1496.000000 -608.000000 146.400000 -1496.000000 -608.000000 146.400000 -1624.000000 -640.000000 146.400000 -1624.000000 -608.000000 326.400000 -1624.000000 -608.000000 326.400000 -1496.000000 -640.000000 156.000000 -1496.000000 -640.000000 156.000000 -1624.000000 -320.000000 0.000000 -1848.000000 -192.000000 0.000000 -1848.000000 -320.000000 0.000000 -1880.000000 -192.000000 0.000000 -1880.000000 -192.000000 146.400000 -1848.000000 -192.000000 326.400000 -1848.000000 -320.000000 326.400000 -1848.000000 -320.000000 146.400000 -1848.000000 -192.000000 146.400000 -1880.000000 -320.000000 146.400000 -1880.000000 -320.000000 1257.600000 -1880.000000 -192.000000 1257.600000 -1880.000000 -1264.000000 0.000000 -1160.000000 -1136.000000 0.000000 -1160.000000 -1264.000000 0.000000 -1128.000000 -1136.000000 0.000000 -1128.000000 -1264.000000 146.400000 -1160.000000 -1264.000000 146.400000 -1128.000000 -1136.000000 146.400000 -1128.000000 -1136.000000 146.400000 -1160.000000 -1136.000000 326.400000 -1128.000000 -1264.000000 326.400000 -1128.000000 -1264.000000 156.000000 -1160.000000 -1136.000000 156.000000 -1160.000000 576.000000 0.000000 -684.000000 608.000000 0.000000 -684.000000 576.000000 0.000000 -556.000000 608.000000 0.000000 -556.000000 576.000000 165.600000 -556.000000 576.000000 326.400000 -556.000000 576.000000 326.400000 -684.000000 576.000000 165.600000 -684.000000 608.000000 326.400000 -684.000000 608.000000 326.400000 -556.000000 608.000000 165.600000 -556.000000 608.000000 165.600000 -684.000000 -816.000000 0.000000 -296.000000 -784.000000 0.000000 -424.000000 -784.000000 0.000000 -296.000000 -816.000000 0.000000 -424.000000 -784.000000 165.600000 -424.000000 -784.000000 165.600000 -296.000000 -816.000000 165.600000 -296.000000 -816.000000 288.000000 -296.000000 -816.000000 288.000000 -424.000000 -816.000000 165.600000 -424.000000 32.000000 0.000000 -112.000000 64.000000 0.000000 -48.000000 32.000000 0.000000 -48.000000 64.000000 0.000000 -112.000000 32.000000 9.600000 -112.000000 32.000000 9.599999 -48.000000 64.000000 8.400001 -48.000000 64.000000 8.400001 -112.000000 -816.000000 0.000000 -296.000000 -784.000000 0.000000 -424.000000 -784.000000 0.000000 -296.000000 -816.000000 0.000000 -424.000000 -784.000000 9.600000 -424.000000 -784.000000 9.600000 -296.000000 -816.000000 9.600000 -296.000000 -816.000000 9.600000 -424.000000 -1168.000000 0.000000 -824.000000 -1232.000000 0.000000 -824.000000 -1232.000000 0.000000 -792.000000 -1168.000000 0.000000 -792.000000 -1168.000000 9.600000 -824.000000 -1232.000000 9.600000 -792.000000 -1168.000000 9.599999 -792.000000 -1232.000000 9.599999 -824.000000 1120.000000 0.000000 -556.000000 1120.000000 0.000000 -684.000000 1120.000000 8.400001 -556.000000 1120.000000 8.400001 -684.000000 1088.000000 0.000000 -556.000000 1088.000000 0.000000 -684.000000 1088.000000 8.400001 -684.000000 1088.000000 8.400001 -556.000000 -320.000000 0.000000 -1848.000000 -192.000000 0.000000 -1848.000000 -320.000000 0.000000 -1880.000000 -192.000000 0.000000 -1880.000000 -192.000000 9.600000 -1880.000000 -320.000000 9.600000 -1848.000000 -192.000000 9.599999 -1848.000000 -320.000000 9.599999 -1880.000000 -640.000000 0.000000 -1496.000000 -640.000000 0.000000 -1624.000000 -608.000000 0.000000 -1624.000000 -608.000000 0.000000 -1496.000000 -608.000000 9.600000 -1496.000000 -640.000000 9.600000 -1624.000000 -608.000000 9.599999 -1624.000000 -640.000000 9.599999 -1496.000000 -1264.000000 0.000000 -1160.000000 -1136.000000 0.000000 -1160.000000 -1264.000000 0.000000 -1128.000000 -1136.000000 0.000000 -1128.000000 -1264.000000 9.600000 -1128.000000 -1136.000000 9.600000 -1160.000000 -1264.000000 9.599999 -1160.000000 -1136.000000 9.599999 -1128.000000 64.000000 0.000000 -480.000000 64.000000 0.000000 -552.000000 576.000000 0.000000 -552.000000 576.000000 0.000000 -480.000000 64.000000 326.400000 -480.000000 576.000000 326.400000 -480.000000 576.000000 326.400000 -552.000000 64.000000 326.400000 -552.000000 576.000000 0.000000 -684.000000 608.000000 0.000000 -684.000000 576.000000 0.000000 -556.000000 608.000000 0.000000 -556.000000 608.000000 8.400001 -684.000000 608.000000 8.400001 -556.000000 576.000000 8.400001 -684.000000 576.000000 8.400001 -556.000000 -816.000000 288.000000 -424.000000 -816.000000 9.600000 -424.000000 -816.000000 288.000000 -792.000000 -816.000000 9.600000 -792.000000 -1168.000000 288.000000 -792.000000 -1136.000000 9.600000 -792.000000 -1136.000000 288.000000 -792.000000 -1168.000000 9.600000 -792.000000 576.000000 326.400000 -556.000000 576.000000 8.400001 -552.000000 576.000000 8.400001 -556.000000 576.000000 326.400000 -552.000000 64.000000 8.400001 -112.000000 64.000000 8.400001 -480.000000 64.000000 326.400000 -480.000000 64.000000 326.400000 -112.000000 200.000000 175.200000 -688.000000 200.000000 326.400000 -688.000000 136.000000 175.200000 -688.000000 136.000000 326.400000 -688.000000 -1344.000000 326.400000 -408.000000 -1024.000000 326.400000 -408.000000 -1024.000000 326.400000 -664.000000 -1344.000000 326.400000 -664.000000 -608.000000 326.400000 -1416.000000 -608.000000 326.400000 -1496.000000 -608.000000 9.600000 -1496.000000 -608.000000 9.600000 -1416.000000</float_array><technique_common><accessor count="659" source="#MAP02-0-Pos-array" stride="3"><param name="X" type="float"/><param name="Y" type="float"/><param name="Z" type="float"/></accessor></technique_common></source><source id="MAP02-0-Normal"><float_array id="MAP02-0-Normal-array" count="1977">0.000000 1.000000 0.000000 0.000000 1.000000 0.000000 0.000000 1.000000 0.000000 0.000000 1.000000 0.000000 -0.577350 0.577350 0.577350 -0.577350 -0.577350 0.577350 -0.301511 -0.904534 0.301511 -0.301511 0.904534 0.301511 0.000000 0.000000 -1.000000 0.000000 0.000000 -1.000000 0.408248 -0.816497 -0.408248 0.408248 0.816497 -0.408248 0.577350 0.577350 0.577350 0.577350 -0.577350 0.577350 0.301511 -0.904534 0.301511 0.301511 0.904534 0.301511 0.000000 1.000000 -0.000000 0.000000 -1.000000 0.000000 0.192450 0.962250 0.192450 0.192450 -0.962250 0.192450 0.408248 -0.816497 0.408248 0.408248 0.816497 0.408248 0.577350 0.577350 0.577350 0.577350 -0.577350 0.577350 0.408248 -0.816497 -0.408248 0.408248 0.816497 -0.408248 -1.000000 0.000000 0.000000 -1.000000 0.000000 0.000000 -1.000000 0.000000 0.000000 -1.000000 0.000000 0.000000 1.000000 0.000000 0.000000 1.000000 0.000000 0.000000 1.000000 0.000000 0.000000 1.000000 0.000000 0.000000 -0.235702 0.942809 -0.235702 -0.235702 -0.942809 -0.235702 0.408248 -0.816497 -0.408248 0.408248 0.816497 -0.408248 0.235702 0.942809 0.235702 0.235702 -0.942809 0.235702 -0.408248 -0.816497 0.408248 -0.408248 0.816497 0.408248 0.301511 0.904534 0.301511 0.301511 -0.904534 0.301511 -0.235702 -0.942809 0.235702 -0.235702 0.942809 0.235702 0.577350 0.577350 0.577350 0.577350 -0.577350 0.577350 0.408248 -0.816497 0.408248 0.408248 0.816497 0.408248 -0.577350 0.577350 0.577350 -0.577350 -0.577350 0.577350 -0.301511 -0.904534 0.301511 -0.301511 0.904534 0.301511 -0.577350 0.577350 -0.577350 -0.577350 -0.577350 -0.577350 -0.301511 -0.904534 -0.301511 -0.301511 0.904534 -0.301511 -0.408248 -0.816497 0.408248 -0.408248 0.816497 0.408248 0.000000 0.000000 1.000000 0.000000 0.000000 1.000000 -0.408248 -0.816497 0.408248 -0.408248 0.816497 0.408248 0.000000 0.000000 -1.000000 0.000000 0.000000 -1.000000 -0.577350 0.577350 0.577350 -0.577350 -0.577350 0.577350 -0.707107 0.000000 -0.707107 0.000000 1.000000 0.000000 0.140028 0.980196 -0.140028 0.140028 -0.980196 -0.140028 0.408248 -0.816497 -0.408248 0.408248 0.816497 -0.408248 0.192450 -0.962250 -0.192450 0.192450 0.962250 -0.192450 0.577350 -0.577350 -0.577350 0.577350 0.577350 -0.577350 0.140028 0.980196 -0.140028 0.140028 -0.980196 -0.140028 0.408248 -0.816497 0.408248 0.408248 0.816497 0.408248 -0.301511 0.904534 0.301511 -0.301511 -0.904534 0.301511 -0.235702 -0.942809 -0.235702 -0.235702 0.942809 -0.235702 0.408248 -0.816497 0.408248 0.408248 0.816497 0.408248 -0.577350 0.577350 0.577350 -0.577350 -0.577350 0.577350 -0.577350 0.577350 -0.577350 -0.577350 -0.577350 -0.577350 -0.162221 -0.973329 -0.162221 -0.162221 0.973329 -0.162221 0.577350 0.577350 -0.577350 0.577350 -0.577350 -0.577350 0.162221 -0.973329 -0.162221 0.162221 0.973329 -0.162221 -0.301511 0.904534 -0.301511 -0.301511 -0.904534 -0.301511 -0.408248 -0.816497 -0.408248 -0.408248 0.816497 -0.408248 1.000000 0.000000 0.000000 1.000000 0.000000 0.000000 0.577350 0.577350 -0.577350 0.577350 -0.577350 -0.577350 0.235702 -0.942809 -0.235702 0.235702 0.942809 -0.235702 -0.577350 -0.577350 -0.577350 -0.577350 0.577350 -0.577350 -1.000000 0.000000 0.000000 -1.000000 0.000000 0.000000 -0.408248 -0.816497 0.408248 -0.408248 0.816497 0.408248 -0.577350 0.577350 0.577350 -0.577350 -0.577350 0.577350 -0.408248 -0.816497 0.408248 -0.408248 0.816497 0.408248 0.408248 0.816497 0.408248 0.408248 -0.816497 0.408248 0.235702 0.942809 -0.235702 0.235702 -0.942809 -0.235702 0.408248 -0.816497 -0.408248 0.408248 0.816497 -0.408248 0.000000 -1.000000 0.000000 0.000000 1.000000 -0.000000 0.408248 0.816497 -0.408248 0.408248 -0.816497 -0.408248 0.301511 -0.904534 0.301511 0.301511 0.904534 0.301511 0.408248 -0.816497 0.408248 0.408248 0.816497 0.408248 0.192450 0.962250 -0.192450 0.192450 -0.962250 -0.192450 0.408248 -0.816497 -0.408248 0.408248 0.816497 -0.408248 -0.577350 0.577350 0.577350 -0.577350 -0.577350 0.577350 -0.408248 -0.816497 0.408248 -0.408248 0.816497 0.408248 0.577350 0.577350 0.577350 0.577350 -0.577350 0.577350 -0.577350 0.577350 -0.577350 -0.577350 -0.577350 -0.577350 0.000000 -1.000000 0.000000 0.707107 0.000000 0.707107 -0.235702 -0.942809 -0.235702 -0.235702 0.942809 -0.235702 0.577350 0.577350 0.577350 0.577350 -0.577350 0.577350 0.235702 -0.942809 0.235702 0.235702 0.942809 0.235702 -0.192450 0.962250 0.192450 -0.192450 -0.962250 0.192450 -1.000000 0.000000 0.000000 -1.000000 0.000000 0.000000 -0.577350 0.577350 0.577350 -0.577350 -0.577350 0.577350 -0.162221 -0.973329 -0.162221 -0.162221 0.973329 -0.162221 0.235702 0.942809 0.235702 0.235702 -0.942809 0.235702 0.235702 -0.942809 -0.235702 0.235702 0.942809 -0.235702 -0.577350 0.577350 -0.577350 -0.577350 -0.577350 -0.577350 0.577350 0.577350 0.577350 0.577350 -0.577350 0.577350 -0.408248 -0.816497 0.408248 -0.408248 0.816497 0.408248 0.235702 0.942809 -0.235702 0.235702 -0.942809 -0.235702 0.577350 -0.577350 0.577350 0.577350 0.577350 0.577350 -0.301511 0.904534 0.301511 -0.301511 -0.904534 0.301511 -0.408248 -0.816497 0.408248 -0.408248 0.816497 0.408248 -0.577350 0.577350 -0.577350 -0.577350 -0.577350 -0.577350 -0.140028 -0.980196 -0.140028 -0.140028 0.980196 -0.140028 0.000000 0.000000 1.000000 0.000000 0.000000 1.000000 -0.408248 0.816497 -0.408248 -0.408248 -0.816497 -0.408248 0.577350 -0.577350 -0.577350 0.577350 0.577350 -0.577350 -0.408248 0.816497 -0.408248 -0.408248 -0.816497 -0.408248 0.577350 -0.577350 -0.577350 0.577350 0.577350 -0.577350 -0.408248 0.816497 -0.408248 -0.408248 -0.816497 -0.408248 0.408248 0.816497 0.408248 0.408248 -0.816497 0.408248 0.577350 -0.577350 -0.577350 0.577350 0.577350 -0.577350 0.577350 -0.577350 0.577350 0.577350 0.577350 0.577350 0.408248 0.816497 -0.408248 0.408248 -0.816497 -0.408248 0.000000 0.000000 -1.000000 0.000000 0.000000 -1.000000 0.000000 0.000000 -1.000000 0.000000 0.000000 -1.000000 0.000000 0.000000 -1.000000 0.000000 0.000000 -1.000000 0.000000 0.000000 -1.000000 0.000000 0.000000 -1.000000 0.000000 0.000000 -1.000000 0.000000 0.000000 -1.000000 0.000000 0.000000 1.000000 0.000000 0.000000 1.000000 -0.408248 0.816497 -0.408248 -0.408248 -0.816497 -0.408248 0.000000 -1.000000 0.000000 -0.707107 0.000000 -0.707107 -0.707107 0.000000 -0.707107 -0.707107 0.000000 -0.707107 0.707107 0.000000 0.707107 0.000000 1.000000 -0.000000 0.301511 0.904534 0.301511 0.301511 -0.904534 0.301511 -0.301511 -0.904534 0.301511 -0.301511 0.904534 0.301511 0.301511 0.904534 -0.301511 0.301511 -0.904534 -0.301511 -1.000000 0.000000 0.000000 -0.408248 0.816497 -0.408248 -0.408248 -0.816497 -0.408248 -0.301511 0.904534 -0.301511 -0.301511 -0.904534 -0.301511 -1.000000 0.000000 0.000000 0.707107 0.000000 0.707107 0.707107 0.000000 0.707107 0.301511 -0.904534 -0.301511 0.301511 0.904534 -0.301511 0.000000 -1.000000 0.000000 0.000000 1.000000 0.000000 0.000000 0.000000 1.000000 0.000000 0.000000 1.000000 0.000000 0.000000 1.000000 0.000000 0.000000 1.000000 0.000000 -1.000000 0.000000 0.000000 1.000000 0.000000 0.000000 1.000000 0.000000 0.000000 -1.000000 0.000000 0.000000 0.707107 -0.707107 0.000000 -0.707107 -0.707107 -0.577350 -0.577350 -0.577350 -0.577350 0.577350 -0.577350 -1.000000 0.000000 0.000000 -1.000000 0.000000 0.000000 -0.577350 -0.577350 0.577350 -0.577350 0.577350 0.577350 -0.577350 -0.577350 0.577350 -0.577350 0.577350 0.577350 -1.000000 0.000000 0.000000 -1.000000 0.000000 0.000000 0.577350 0.577350 -0.577350 0.577350 -0.577350 -0.577350 0.577350 0.577350 -0.577350 0.577350 -0.577350 -0.577350 -0.577350 0.577350 0.577350 -0.577350 -0.577350 0.577350 0.000000 -0.707107 0.707107 0.000000 0.707107 0.707107 0.577350 0.577350 -0.577350 0.577350 -0.577350 -0.577350 0.577350 0.577350 0.577350 0.577350 -0.577350 0.577350 1.000000 0.000000 0.000000 1.000000 0.000000 0.000000 1.000000 0.000000 0.000000 1.000000 0.000000 0.000000 0.000000 0.000000 1.000000 0.000000 0.000000 1.000000 -0.577350 0.577350 0.577350 -0.577350 -0.577350 0.577350 -0.577350 -0.577350 0.577350 -0.577350 0.577350 0.577350 0.577350 0.577350 0.577350 0.577350 -0.577350 0.577350 0.577350 -0.577350 0.577350 0.577350 0.577350 0.577350 0.577350 0.577350 -0.577350 0.577350 -0.577350 -0.577350 -0.577350 -0.577350 -0.577350 -0.577350 0.577350 -0.577350 -0.707107 -0.707107 0.000000 -0.577350 0.577350 -0.577350 0.577350 0.577350 -0.577350 0.447214 -0.894427 0.000000 1.000000 0.000000 0.000000 0.577350 0.577350 0.577350 0.577350 -0.577350 0.577350 1.000000 0.000000 0.000000 -0.577350 0.577350 0.577350 -0.577350 -0.577350 0.577350 -0.577350 0.577350 -0.577350 0.000000 0.707107 -0.707107 0.000000 0.000000 1.000000 0.000000 0.000000 1.000000 0.000000 0.000000 -1.000000 0.000000 0.000000 -1.000000 1.000000 0.000000 0.000000 -0.577350 0.577350 -0.577350 -0.408248 0.816497 -0.408248 -0.577350 0.577350 -0.577350 -0.577350 0.577350 -0.577350 0.577350 0.577350 -0.577350 0.408248 0.816497 -0.408248 0.577350 0.577350 -0.577350 0.577350 0.577350 -0.577350 0.000000 0.707107 -0.707107 -0.408248 0.816497 -0.408248 0.000000 -0.832050 -0.554700 -0.577350 -0.577350 -0.577350 -0.577350 0.577350 -0.577350 1.000000 0.000000 0.000000 0.408248 -0.816497 -0.408248 0.408248 0.816497 -0.408248 0.000000 -1.000000 0.000000 -0.447214 -0.894427 0.000000 0.000000 -0.707107 -0.707107 0.000000 -1.000000 0.000000 0.000000 -1.000000 0.000000 0.000000 0.000000 -1.000000 -1.000000 0.000000 0.000000 -1.000000 0.000000 0.000000 -0.577350 0.577350 0.577350 -0.577350 -0.577350 0.577350 0.000000 -0.707107 0.707107 0.000000 0.707107 0.707107 -0.577350 0.577350 -0.577350 -0.577350 -0.577350 -0.577350 -0.577350 -0.577350 -0.577350 -0.577350 0.577350 -0.577350 -1.000000 0.000000 0.000000 -1.000000 0.000000 0.000000 0.000000 0.000000 -1.000000 0.000000 0.000000 -1.000000 0.577350 0.577350 -0.577350 0.577350 -0.577350 -0.577350 0.000000 0.000000 -1.000000 -0.577350 0.577350 -0.577350 -0.577350 -0.577350 -0.577350 0.577350 -0.577350 0.577350 0.577350 0.577350 0.577350 0.000000 0.000000 1.000000 0.000000 0.000000 1.000000 0.408248 0.816497 0.408248 0.707107 0.707107 0.000000 0.577350 0.577350 0.577350 0.577350 0.577350 0.577350 -1.000000 0.000000 0.000000 0.000000 0.894427 0.447214 0.000000 0.000000 1.000000 0.577350 0.577350 0.577350 0.000000 0.000000 1.000000 0.000000 0.000000 1.000000 0.577350 -0.577350 0.577350 0.577350 0.577350 0.577350 -1.000000 0.000000 0.000000 -0.577350 0.577350 0.577350 -0.577350 -0.577350 0.577350 0.000000 -0.948683 0.316228 0.000000 -1.000000 0.000000 0.707107 -0.707107 0.000000 0.000000 -1.000000 0.000000 0.000000 0.000000 -1.000000 0.000000 0.000000 -1.000000 0.577350 0.577350 -0.577350 0.577350 -0.577350 -0.577350 0.000000 0.000000 -1.000000 0.000000 0.000000 -1.000000 -0.577350 0.577350 -0.577350 -0.577350 -0.577350 -0.577350 -0.577350 -0.577350 -0.577350 -0.577350 0.577350 -0.577350 0.707107 0.707107 0.000000 0.707107 -0.707107 0.000000 0.577350 0.577350 0.577350 0.577350 -0.577350 0.577350 -0.577350 -0.577350 -0.577350 -0.577350 0.577350 -0.577350 -0.577350 -0.577350 0.577350 -0.577350 0.577350 0.577350 0.577350 0.577350 -0.577350 0.577350 -0.577350 -0.577350 0.000000 0.000000 -1.000000 0.000000 0.000000 -1.000000 0.577350 0.577350 0.577350 0.577350 -0.577350 0.577350 -0.577350 0.577350 -0.577350 -0.577350 -0.577350 -0.577350 -0.577350 -0.577350 0.577350 -0.577350 0.577350 0.577350 0.000000 0.000000 -1.000000 0.000000 0.000000 -1.000000 0.000000 0.000000 1.000000 0.000000 0.000000 1.000000 0.000000 0.000000 1.000000 0.000000 0.000000 1.000000 0.000000 0.000000 -1.000000 0.000000 0.000000 1.000000 -0.577350 0.577350 0.577350 0.000000 0.000000 1.000000 0.000000 0.000000 1.000000 0.577350 0.577350 0.577350 0.000000 0.000000 -1.000000 0.577350 -0.577350 -0.577350 0.577350 -0.577350 0.577350 0.577350 0.577350 -0.577350 -0.577350 0.577350 -0.577350 -0.577350 -0.577350 0.577350 -0.577350 -0.577350 -0.577350 0.000000 0.000000 -1.000000 0.000000 0.000000 1.000000 0.000000 0.000000 -1.000000 0.577350 0.577350 0.577350 0.577350 -0.577350 0.577350 1.000000 0.000000 0.000000 1.000000 0.000000 0.000000 1.000000 0.000000 0.000000 1.000000 0.000000 0.000000 0.577350 -0.577350 -0.577350 0.577350 0.577350 -0.577350 -1.000000 0.000000 0.000000 -1.000000 0.000000 0.000000 -1.000000 0.000000 0.000000 -0.577350 -0.577350 0.577350 -0.577350 0.577350 0.577350 -0.577350 -0.577350 -0.577350 -0.577350 0.577350 -0.577350 -1.000000 0.000000 0.000000 -0.577350 0.577350 -0.577350 -0.577350 -0.577350 -0.577350 -0.577350 -0.577350 0.577350 -0.577350 0.577350 0.577350 0.000000 0.000000 1.000000 0.000000 0.000000 1.000000 0.577350 0.577350 0.577350 0.577350 -0.577350 0.577350 0.577350 -0.577350 -0.577350 0.577350 0.577350 -0.577350 0.000000 0.000000 -1.000000 0.000000 0.000000 -1.000000 0.000000 0.000000 -1.000000 0.000000 0.000000 -1.000000 0.000000 0.000000 1.000000 0.000000 0.000000 1.000000 1.000000 0.000000 0.000000 1.000000 0.000000 0.000000 -0.577350 0.577350 -0.577350 -0.577350 -0.577350 -0.577350 -0.577350 -0.577350 0.577350 -0.577350 0.577350 0.577350 1.000000 0.000000 0.000000 0.577350 -0.577350 -0.577350 0.577350 0.577350 -0.577350 0.577350 0.577350 0.577350 0.577350 -0.577350 0.577350 1.000000 0.000000 0.000000 0.000000 0.000000 -1.000000 0.000000 0.000000 1.000000 -0.577350 -0.577350 -0.577350 -1.000000 0.000000 0.000000 -1.000000 0.000000 0.000000 -0.577350 -0.577350 0.577350 0.000000 0.000000 -1.000000 0.000000 0.000000 1.000000 0.577350 -0.577350 -0.577350 0.577350 -0.577350 0.577350 1.000000 0.000000 0.000000 1.000000 0.000000 0.000000 -1.000000 0.000000 0.000000 1.000000 0.000000 0.000000 1.000000 0.000000 0.000000 -1.000000 0.000000 0.000000 0.577350 -0.577350 -0.577350 0.577350 -0.577350 0.577350 -0.577350 -0.577350 0.577350 -0.577350 -0.577350 -0.577350 0.000000 0.000000 -1.000000 0.000000 0.000000 -1.000000 0.000000 0.000000 1.000000 0.000000 0.000000 1.000000 0.000000 0.000000 1.000000 0.000000 0.000000 -1.000000 0.000000 0.000000 -1.000000 0.000000 0.000000 1.000000 -1.000000 0.000000 0.000000 -1.000000 0.000000 0.000000 0.577350 -0.577350 0.577350 -0.577350 -0.577350 0.577350 -0.577350 -0.577350 -0.577350 0.577350 -0.577350 -0.577350 1.000000 0.000000 0.000000 1.000000 0.000000 0.000000 0.000000 0.000000 -1.000000 0.000000 0.000000 1.000000 0.000000 0.000000 1.000000 0.000000 0.000000 -1.000000 -0.577350 -0.577350 -0.577350 0.577350 -0.577350 -0.577350 0.577350 -0.577350 0.577350 -0.577350 -0.577350 0.577350 1.000000 0.000000 0.000000 1.000000 0.000000 0.000000 -1.000000 0.000000 0.000000 -1.000000 0.000000 0.000000 1.000000 0.000000 0.000000 -1.000000 0.000000 0.000000 1.000000 0.000000 0.000000 -1.000000 0.000000 0.000000 -0.577350 -0.577350 0.577350 0.000000 0.000000 1.000000 0.000000 0.000000 1.000000 0.577350 -0.577350 0.577350 -0.577350 -0.577350 -0.577350 0.577350 -0.577350 -0.577350 0.000000 0.000000 -1.000000 0.000000 0.000000 -1.000000 1.000000 0.000000 0.000000 -1.000000 0.000000 0.000000 1.000000 0.000000 0.000000 -1.000000 0.000000 0.000000 0.577350 -0.577350 -0.577350 0.577350 -0.577350 0.577350 -0.577350 -0.577350 0.577350 -0.577350 -0.577350 -0.577350 0.000000 0.000000 1.000000 0.000000 0.000000 1.000000 0.000000 0.000000 -1.000000 0.000000 0.000000 -1.000000 0.000000 0.000000 1.000000 0.000000 0.000000 1.000000 0.000000 0.000000 -1.000000 0.000000 0.000000 -1.000000 -0.577350 -0.577350 -0.577350 -1.000000 0.000000 0.000000 -1.000000 0.000000 0.000000 -0.577350 -0.577350 0.577350 1.000000 0.000000 0.000000 1.000000 0.000000 0.000000 0.577350 -0.577350 -0.577350 0.577350 -0.577350 0.577350 0.000000 0.000000 -1.000000 0.000000 0.000000 1.000000 0.000000 0.000000 -1.000000 0.000000 0.000000 1.000000 0.000000 -0.707107 0.707107 0.000000 -0.707107 -0.707107 -0.577350 -0.577350 -0.577350 -1.000000 0.000000 0.000000 -1.000000 0.000000 0.000000 -0.577350 -0.577350 0.577350 0.707107 0.707107 0.000000 -0.707107 0.707107 0.000000 0.707107 0.707107 0.000000 -0.707107 0.707107 0.000000 1.000000 0.000000 0.000000 1.000000 0.000000 0.000000 -1.000000 0.000000 0.000000 -1.000000 0.000000 0.000000 0.707107 0.707107 0.000000 -0.707107 0.707107 0.000000 -0.707107 0.707107 0.000000 0.707107 0.707107 0.000000 -1.000000 0.000000 0.000000 -1.000000 0.000000 0.000000 1.000000 0.000000 0.000000 1.000000 0.000000 0.000000 0.000000 0.707107 0.707107 0.000000 0.707107 0.707107 0.000000 0.707107 -0.707107 0.000000 0.707107 -0.707107 0.000000 0.000000 1.000000 0.000000 0.000000 -1.000000 0.000000 0.000000 -1.000000 0.000000 0.000000 1.000000 -0.707107 0.707107 0.000000 -0.707107 0.707107 0.000000 -1.000000 0.000000 0.000000 -1.000000 0.000000 0.000000 0.707107 0.707107 0.000000 0.707107 0.707107 0.000000 1.000000 0.000000 0.000000 1.000000 0.000000 0.000000 0.000000 0.707107 -0.707107 0.000000 0.707107 -0.707107 0.000000 0.707107 0.707107 0.000000 0.707107 0.707107 0.000000 0.000000 1.000000 0.000000 0.000000 -1.000000 0.000000 0.000000 -1.000000 0.000000 0.000000 1.000000 0.707107 0.707107 0.000000 0.707107 0.707107 0.000000 -0.707107 0.707107 0.000000 -0.707107 0.707107 0.000000 -1.000000 0.000000 0.000000 1.000000 0.000000 0.000000 -1.000000 0.000000 0.000000 1.000000 0.000000 0.000000 0.000000 0.707107 0.707107 0.000000 0.707107 0.707107 0.000000 0.707107 -0.707107 0.000000 0.707107 -0.707107 0.000000 0.000000 -1.000000 0.000000 0.000000 1.000000 0.000000 0.000000 1.000000 0.000000 0.000000 -1.000000 1.000000 0.000000 0.000000 1.000000 0.000000 0.000000 -1.000000 0.000000 0.000000 -1.000000 0.000000 0.000000 0.707107 -0.707107 0.000000 -0.707107 -0.707107 0.000000 -0.707107 -0.707107 0.000000 0.707107 -0.707107 0.000000 0.707107 0.707107 0.000000 -0.707107 0.707107 0.000000 0.707107 0.707107 0.000000 -0.707107 0.707107 0.000000 -1.000000 0.000000 0.000000 -1.000000 0.000000 0.000000 1.000000 0.000000 0.000000 1.000000 0.000000 0.000000 -1.000000 0.000000 0.000000 -1.000000 0.000000 0.000000 -0.707107 0.000000 0.707107 -0.707107 0.000000 0.707107 0.000000 0.000000 1.000000 0.000000 0.000000 1.000000 0.000000 0.000000 1.000000 0.000000 0.000000 1.000000 -1.000000 0.000000 0.000000 -1.000000 0.000000 0.000000 -1.000000 0.000000 0.000000 -1.000000 0.000000 0.000000 1.000000 0.000000 0.000000 1.000000 0.000000 0.000000 1.000000 0.000000 0.000000 1.000000 0.000000 0.000000 0.000000 0.000000 1.000000 0.000000 0.000000 1.000000 0.000000 0.000000 1.000000 0.000000 0.000000 1.000000 0.000000 0.000000 0.000000 0.000000 0.000000 0.000000 0.000000 0.000000 0.000000 0.000000 0.000000 0.000000 1.000000 0.000000 0.000000 1.000000 0.000000 0.000000 1.000000 0.000000 0.000000 1.000000 0.000000 0.000000</float_array><technique_common><accessor count="659" source="#MAP02-0-Normal-array" stride="3"><param name="X" type="float"/><param name="Y" type="float"/><param name="Z" type="float"/></accessor></technique_common></source><source id="MAP02-0-UV"><float_array id="MAP02-0-UV-array" count="1462">-23.500000 -12.000000 -23.500000 -7.156250 -23.333330 -42.750000 -23.333330 -34.750000 -23.138460 -16.000000 -23.138460 -9.541667 -22.666670 -42.750000 -22.666670 -34.750000 -17.500000 -12.000000 -17.500000 -10.687500 -17.500000 -8.687500 -17.500000 -7.156250 -17.230770 -16.000000 -17.230770 -9.541667 -17.000000 -10.750000 -17.000000 -10.687500 -17.000000 -8.687500 -17.000000 -8.625000 -16.738460 -14.333330 -16.738460 -11.500000 -12.666670 -42.750000 -12.666670 -34.750000 -12.000000 -42.750000 -12.000000 -34.750000 -9.500000 -10.750000 -9.500000 -10.687500 -9.500000 -8.687500 -9.500000 -8.625000 -9.353847 -14.333330 -9.353847 -11.500000 -9.000000 -10.750000 -9.000000 -10.687500 -9.000000 -8.687500 -9.000000 -8.625000 -9.000000 -7.500000 -9.000000 0.000000 -7.125000 -15.500000 -7.125000 -13.375000 -6.000000 -7.500000 -6.000000 0.000000 -4.500000 -4.312500 -4.500000 -3.750000 -4.125000 -7.500000 -4.125000 0.000000 -3.125000 -10.750000 -3.125000 -8.625000 -3.000000 -3.750000 -3.000000 0.000000 -2.833333 -45.000000 -2.833333 -43.000000 -2.687500 -13.375000 -2.687500 -11.250000 -2.125000 -11.250000 -2.125000 -10.750000 -2.062500 -3.750000 -2.062500 0.000000 -1.500000 -45.000000 -1.500000 -43.000000 -1.333333 -7.000000 -1.333333 -3.000000 -1.125000 -11.250000 -1.125000 -10.750000 -1.000000 -10.750000 -1.000000 -8.625000 -1.000000 -7.500000 -1.000000 -1.750000 -1.000000 -0.750000 -1.000000 0.000000 -0.984375 -1.062500 -0.984375 3.062500 -0.666667 -7.000000 -0.666667 -3.000000 -0.562500 -15.500000 -0.562500 -13.375000 -0.562500 -11.250000 -0.500000 -4.312500 -0.500000 -3.750000 -0.500000 -2.500000 -0.500000 -1.750000 -0.500000 -0.750000 -0.500000 0.000000 -0.359375 1.234375 -0.359375 3.203125 -0.250000 -1.015625 -0.250000 1.015625 -0.234375 -2.906250 -0.234375 0.718750 -0.203125 -1.000000 -0.203125 2.625000 -0.156250 -0.890625 -0.156250 15.359380 -0.078125 2.234375 -0.078125 4.203125 -0.062500 1.218750 -0.062500 3.187500 -0.031250 1.843750 -0.031250 3.812500 -0.015625 -0.890625 -0.015625 -0.875000 -0.015625 -0.828125 -0.015625 3.234375 -0.015625 3.250000 -0.015625 3.312500 -0.015625 15.359380 0.000000 -35.833340 0.000000 -29.500000 0.000000 -26.875000 0.000000 -22.125000 0.000000 -19.375000 0.000000 -8.687500 0.000000 -8.625000 0.000000 -5.906250 0.000000 -2.906250 0.000000 -2.296875 0.000000 -2.281250 0.000000 -2.156251 0.000000 -1.593750 0.000000 -1.078125 0.000000 -1.015625 0.000000 -1.000000 0.000000 -0.937500 0.000000 -0.906250 0.000000 -0.890625 0.000000 -0.875000 0.000000 -0.859375 0.000000 -0.812500 0.000000 -0.500000 0.000000 -0.312500 0.000000 -0.140633 0.000000 -0.140630 0.000000 -0.140626 0.000000 -0.140625 0.000000 -0.140611 0.000000 -0.125007 0.000000 -0.125005 0.000000 -0.125004 0.000000 -0.125001 0.000000 -0.125000 0.000000 -0.124987 0.000000 -0.109385 0.000000 -0.109380 0.000000 -0.109375 0.000000 -0.093750 0.000000 -0.062500 0.000000 -0.000000 0.000000 0.000000 0.000000 0.718750 0.000000 0.718750 0.000000 1.015625 0.000000 1.062500 0.000000 1.078125 0.000000 1.156250 0.000000 1.218750 0.000000 1.328125 0.000000 1.765625 0.000000 2.531250 0.000000 2.625000 0.000000 2.687500 0.000000 3.031250 0.000000 3.046875 0.000000 3.187500 0.000000 3.218750 0.000000 3.234375 0.000000 3.250000 0.000000 3.265625 0.000000 3.312500 0.000000 3.734375 0.000000 4.031250 0.000000 6.750000 0.000000 6.812500 0.000000 7.750000 0.000000 7.812500 0.000000 15.359380 0.000000 15.375000 0.000000 15.437500 0.015625 -1.015625 0.015625 -0.875000 0.015625 1.156250 0.015625 2.609375 0.015625 3.062500 0.015625 -1.062500 0.031250 -0.906250 0.031250 -0.890625 0.031250 1.015625 0.031250 3.234375 0.062500 -0.890625 0.062500 -0.125000 0.062500 -0.109375 0.062500 3.250000 0.078125 -1.015625 0.078125 1.015625 0.125000 -1.000000 0.125000 -0.890625 0.125000 -0.875000 0.125000 -0.765625 0.125000 -0.750000 0.125000 -0.578125 0.125000 -0.109360 0.125000 0.000000 0.125000 1.343750 0.125000 1.765625 0.125000 3.250000 0.125000 3.312500 0.125000 3.734375 0.140625 -0.812500 0.140625 3.328125 0.234375 -1.000000 0.234375 2.625000 0.250000 -1.593750 0.250000 -1.562500 0.250000 -1.109375 0.250000 -1.093750 0.250000 -1.015625 0.250000 -1.000000 0.250000 -0.984375 0.250000 -0.968750 0.250000 -0.890625 0.250000 -0.875000 0.250000 -0.828125 0.250000 -0.140625 0.250000 -0.125000 0.250000 0.781250 0.250000 1.015625 0.250000 1.031250 0.250000 1.062500 0.250000 2.531250 0.250000 3.031250 0.250000 3.140625 0.250000 3.312500 0.265625 -0.828125 0.265625 3.312500 0.281250 -2.000000 0.281250 -1.984375 0.281250 -1.875000 0.281250 -0.531250 0.281250 0.296875 0.281250 1.218750 0.281250 1.812500 0.281250 3.187500 0.296875 -1.000000 0.296875 2.625000 0.312500 -1.109375 0.312500 -1.000000 0.312500 -0.937500 0.312500 -0.828125 0.312500 0.984375 0.312500 1.156250 0.312500 3.140625 0.312500 3.312500 0.375000 -1.000000 0.375000 -0.828125 0.375000 3.140625 0.375000 3.312500 0.390625 0.718750 0.390625 2.687500 0.484375 -0.875000 0.484375 -0.125000 0.484375 -0.015625 0.484375 2.218750 0.484375 3.250000 0.484375 4.125000 0.500000 -1.015625 0.500000 -1.093750 0.500000 -1.031250 0.500000 -1.015625 0.500000 -1.000000 0.500000 -0.890625 0.500000 -0.875000 0.500000 -0.828125 0.500000 -0.140625 0.500000 -0.125000 0.500000 -0.015625 0.500000 0.000000 0.500000 0.812500 0.500000 1.015625 0.500000 1.031250 0.500000 3.031250 0.500000 3.312500 0.515625 -1.015625 0.515625 -0.031250 0.515625 1.062500 0.515625 2.312500 0.515625 2.609375 0.515625 3.031250 0.562500 -2.296875 0.562500 -2.281250 0.562500 -1.000000 0.562500 -0.890625 0.562500 0.718750 0.562500 1.093750 0.562500 1.218750 0.562500 2.687500 0.562500 3.187500 0.562500 3.250000 0.625000 -0.125000 0.625000 -0.109375 0.666667 -8.687500 0.666667 -8.625000 0.666667 -0.875000 0.666667 -0.812500 0.666667 -0.062500 0.666667 0.000000 0.666667 6.750000 0.666667 6.812500 0.666667 7.750000 0.666667 7.812500 0.666667 15.375000 0.666667 15.437500 0.687500 -0.125000 0.687500 -0.109375 0.750000 -0.140625 0.750000 -0.125000 0.765625 -0.875000 0.765625 1.156250 0.843750 -0.890625 0.843750 15.359380 0.859375 -0.828125 0.859375 3.312500 0.875000 -2.296875 0.875000 -2.281250 0.875000 -0.109379 0.875000 0.000000 0.953125 1.234375 0.953125 3.203125 0.968750 3.812500 0.968750 1.843750 0.984375 -1.015625 0.984375 -1.000000 0.984375 -0.890625 0.984375 0.593750 0.984375 2.625000 0.984375 3.234375 0.984375 13.453130 0.984375 15.359380 0.984375 -0.890625 1.000000 -0.890625 1.000000 -0.500000 1.000000 -0.312500 1.000000 -0.140625 1.000000 -0.125000 1.000000 -0.109375 1.000000 0.000000 1.000000 15.359380 1.015625 -0.828125 1.015625 3.312500 1.125000 -1.000000 1.125000 -0.937500 1.125000 -0.765625 1.125000 -0.750000 1.125000 -0.578125 1.125000 3.312500 1.234375 -1.000000 1.234375 2.625000 1.250000 -1.593750 1.250000 -0.140625 1.250000 -0.125000 1.250000 2.531250 1.281250 -0.531250 1.281250 1.812500 1.312500 -0.125000 1.312500 -0.109375 1.484375 -0.125000 1.484375 2.218750 1.500000 -1.031250 1.500000 -0.140625 1.500000 -0.125000 1.500000 0.812500 1.531250 -0.890625 1.531250 3.250000 1.562500 -2.296875 1.562500 -2.281250 1.625000 -0.015625 1.625000 0.000000 1.750000 -1.593750 1.750000 2.531250 1.875000 -2.296875 1.875000 -2.281250 1.875000 -0.937500 1.875000 -0.890625 1.875000 3.250000 1.875000 3.312500 1.969231 -44.500000 1.969231 -39.166670 1.969231 -38.500000 1.969231 -35.833340 1.984375 -0.890625 1.984375 -0.875000 1.984375 3.250000 1.984375 15.359380 2.000000 -33.375000 2.000000 -29.375000 2.000000 -28.875000 2.000000 -26.875000 2.000000 -1.078125 2.000000 -1.015625 2.000000 -0.906250 2.000000 -0.890625 2.000000 -0.875000 2.000000 -0.140625 2.000000 -0.125000 2.000000 -0.109375 2.000000 0.000000 2.000000 1.078125 2.000000 1.328125 2.000000 3.046875 2.000000 3.218750 2.000000 3.250000 2.000000 15.359380 2.046875 2.234375 2.046875 4.203125 2.062500 -0.125000 2.062500 -0.109375 2.062500 1.218750 2.062500 3.187500 2.125000 -2.296875 2.125000 -2.281250 2.125000 -0.125000 2.125000 -0.109375 2.125000 -0.015625 2.125000 0.000000 2.250000 -6.875000 2.250000 -2.500000 2.250000 -1.562500 2.250000 -1.109375 2.250000 -1.093750 2.250000 -0.984375 2.250000 -0.968750 2.250000 -0.140628 2.250000 -0.140625 2.250000 -0.125003 2.250000 -0.125000 2.250000 0.000000 2.250000 0.781250 2.250000 1.343750 2.250000 3.312500 2.312500 -1.109375 2.312500 -0.937500 2.312500 0.984375 2.312500 1.156250 2.375000 -0.140626 2.375000 -0.125001 2.406250 -2.000000 2.406250 -1.984375 2.406250 -1.875000 2.406250 0.296875 2.406250 1.218750 2.406250 3.187500 2.484375 -0.875000 2.484375 3.250000 2.500000 -1.093750 2.500000 -0.890625 2.500000 -0.140630 2.500000 -0.140625 2.500000 -0.125004 2.500000 -0.125000 2.500000 1.015625 2.500000 3.031250 2.515625 -0.031250 2.515625 2.312500 2.562500 -1.000000 2.562500 1.093750 2.750000 -2.296875 2.750000 -2.281250 2.750000 -1.015625 2.750000 -0.875000 2.750000 -0.140625 2.750000 -0.125000 2.750000 1.015625 2.750000 1.062500 2.750000 1.156250 2.750000 3.031250 2.828125 -1.015625 2.828125 1.015625 2.984375 -1.015625 2.984375 -1.000000 2.984375 -0.875000 2.984375 -0.828125 2.984375 0.593750 2.984375 3.250000 2.984375 3.312500 2.984375 13.453130 3.000000 -29.375000 3.000000 -28.875000 3.000000 -0.140630 3.000000 -0.140625 3.000000 -0.125004 3.000000 -0.125000 3.000000 -0.109375 3.000000 0.000000 3.000000 1.062500 3.000000 3.031250 3.078125 1.234375 3.078125 3.203125 3.125000 -0.125000 3.125000 -0.109375 3.125000 -0.015625 3.125000 0.000000 3.250000 -0.125000 3.250000 -0.109375 3.250000 -0.015625 3.250000 0.000000 3.312500 -0.125000 3.312500 -0.109375 3.500000 -0.859375 3.500000 -0.140625 3.500000 -0.125000 3.500000 3.265625 3.984375 -0.828125 3.984375 3.312500 4.000000 -117.500000 4.000000 -115.500000 4.000000 -5.906250 4.000000 -2.906250 4.000000 -2.281250 4.000000 -0.890625 4.000000 -0.140625 4.000000 -0.125000 4.000000 -0.109375 4.000000 0.000000 4.000000 0.718750 4.000000 15.359380 4.078125 1.234375 4.078125 3.203125 4.375000 -1.015625 4.375000 -0.140625 4.375000 -0.125001 4.375000 1.015625 4.750000 -1.000000 4.750000 -0.875000 4.750000 -0.140625 4.750000 -0.125004 4.750000 -0.125000 4.750000 -0.093750 4.750000 2.625000 4.750000 3.250000 4.750000 4.031250 4.765625 -2.906250 4.765625 0.718750 4.843750 -0.125000 4.843750 -0.109375 4.843750 -0.109370 4.875000 -1.015625 4.875000 -0.875000 4.875000 1.015625 4.875000 3.250000 4.968750 -0.890625 4.968750 3.250000 5.000000 -29.375000 5.000000 -28.875000 5.000000 -6.875000 5.000000 -4.375000 5.000000 -2.906250 5.000000 -2.296875 5.000000 -2.281250 5.000000 -1.000000 5.000000 -0.140625 5.000000 -0.125000 5.000000 -0.109375 5.000000 -0.015625 5.000000 0.000000 5.000000 0.718750 5.000000 2.625000 5.500000 -0.890625 5.500000 1.015625 5.734375 -0.828125 5.734375 3.312500 5.875000 -0.125000 5.875000 -0.109382 5.907692 -44.500000 5.907692 -39.166670 5.907692 -38.500000 5.907692 -35.833340 5.984375 -1.000000 5.984375 2.625000 6.000000 -33.375000 6.000000 -29.375000 6.000000 -28.875000 6.000000 -26.875000 6.000000 -0.890625 6.000000 -0.125000 6.000000 -0.109375 6.000000 0.000000 6.000000 3.250000 6.015625 -0.812500 6.015625 3.328125 6.484375 -0.015625 6.484375 4.125000 6.500000 -0.140625 6.500000 -0.125000 6.500000 -0.124990 6.500001 -0.140613 6.562500 -2.296875 6.562500 -2.281250 6.666667 -117.500000 6.666667 -115.500000 6.750000 -0.140625 6.750000 -0.125001 6.843750 -2.000000 6.843750 -1.984375 6.953125 0.718750 6.953125 2.687500 7.250000 -1.015625 7.250000 -0.140625 7.250000 -0.125004 7.250000 -0.124971 7.250000 1.015625 7.500000 -0.906250 7.500000 -0.890625 7.500000 -0.140625 7.500000 -0.125007 7.500000 -0.125000 7.500000 -0.109375 7.500000 0.000000 7.500000 1.015625 7.500000 3.234375 7.531250 -0.906250 7.531250 -0.890625 7.531250 1.015625 7.531250 3.234375 7.750000 -2.296875 7.750000 -2.281250 7.750000 -0.140625 7.750000 -0.125004 8.000000 -1.000000 8.000000 -0.828125 8.000000 -0.140625 8.000000 -0.125003 8.000000 -0.125000 8.000000 -0.109375 8.000000 2.625000 8.000000 3.312500 9.000000 -0.140625 9.000000 -0.125000 9.000000 -0.109375 9.353847 -35.833340 9.353847 -29.500000 9.499999 -2.156250 9.499999 0.000000 9.500000 -26.875000 9.500000 -25.375000 9.500000 -23.375000 9.500000 -22.125000 9.500000 -19.375000 9.500000 -2.296875 9.500000 -2.281249 9.846154 -34.166670 9.846154 -30.833330 10.000000 -25.625000 10.000000 -25.375000 10.000000 -23.375000 10.000000 -23.125000 10.015630 1.062500 10.015630 3.031250 10.500000 -0.125000 10.500000 -0.109375 10.687500 -0.125000 10.687500 -0.109375 10.750000 -0.125000 10.750000 -0.109375 10.875000 -2.296875 10.875000 -2.281250 11.000000 -2.296875 11.000000 -2.281250 11.250000 -0.125000 11.250000 -0.109375 11.750000 -1.000000 11.750000 2.625000 12.250000 -6.875000 12.250000 -6.625000 12.250000 -4.625000 12.250000 -4.375000 12.500000 -0.140625 12.500000 -0.125000 12.666670 -101.500000 12.666670 -93.500000 12.750000 -12.375000 12.750000 -6.625000 12.750000 -4.625000 12.750000 -4.375000 13.000000 -2.296875 13.000000 -2.281250 13.333330 -101.500000 13.333330 -93.500000 15.507690 -23.500000 15.507690 -17.166670 15.750000 -17.625000 15.750000 -12.875000 16.000000 -10.375000 16.000000 -6.375000 16.333330 -26.500000 16.333330 -18.500000 17.000000 -26.500000 17.000000 -18.500000 17.230770 -34.166670 17.230770 -30.833330 17.230770 -24.166670 17.500000 -25.625000 17.500000 -23.125000 17.500000 -18.125000 17.750000 -18.125000 17.750000 -17.625000 18.250000 -12.875000 18.250000 -12.375000 18.250000 -0.140625 18.250000 -0.125033 19.250000 -12.875000 19.250000 -12.375000 19.692310 -34.166670 19.692310 -24.166670 19.750000 -18.125000 19.750000 -17.625000 20.000000 -25.625000 20.000000 -18.125000 21.000000 -10.375000 21.000000 -6.375000 21.415380 -23.500000 21.415380 -17.166670 21.750000 -17.625000 21.750000 -12.875000 23.666670 -72.500000 23.666670 -70.500000 24.333330 -51.500000 24.333330 -49.500000 24.500000 -12.375000 24.500000 -10.375000 24.500000 -4.375000 25.666670 -51.500000 25.666670 -49.500000 26.333330 -72.500000 26.333330 -70.500000 0.000000 0.000000</float_array><technique_common><accessor count="731" source="#MAP02-0-UV-array" stride="2"><param name="S" type="float"/><param name="T" type="float"/></accessor></technique_common></source><vertices id="MAP02-0-Vtx"><input semantic="POSITION" source="#MAP02-0-Pos"/></vertices><polylist count="13" material="Default"><input offset="0" semantic="VERTEX" source="#MAP02-0-Vtx"/><input offset="1" semantic="NORMAL" source="#MAP02-0-Normal"/><input offset="2" semantic="TEXCOORD" source="#MAP02-0-UV"/><vcount>4 4 4 4 4 4 4 4 4 4 4 4 4</vcount><p>39 39 611 40 40 141 41 41 137 38 38 610 35 35 611 36 36 141 37 37 137 34 34 610 31 31 372 32 32 272 33 33 271 30 30 371 27 27 500 28 28 419 29 29 418 26 26 499 6 6 609 215 215 133 214 214 128 7 7 608 10 10 454 24 24 430 25 25 428 11 11 452 18 18 131 22 22 219 23 23 220 19 19 137 14 14 454 20 20 430 21 21 428 15 15 452 12 12 128 18 18 608 19 19 609 13 13 133 8 8 131 214 214 452 215 215 454 9 9 137 13 13 556 14 14 137 15 15 131 12 12 555 9 9 609 10 10 133 11 11 128 8 8 608 5 5 220 6 6 137 7 7 131 4 4 219</p></polylist><polylist count="150" material="F_SKY1"><input offset="0" semantic="VERTEX" source="#MAP02-0-Vtx"/><input offset="1" semantic="NORMAL" source="#MAP02-0-Normal"/><input offset="2" semantic="TEXCOORD" source="#MAP02-0-UV"/><vcount>3 3 3 3 3 3 3 3 3 3 3 3 3 3 3 3 3 3 3 3 3 3 3 3 3 3 3 3 3 3 3 3 3 3 3 3 3 3 3 3 3 3 3 3 3 3 3 3 3 3 3 3 3 3 3 3 3 3 3 3 3 3 3 3 3 3 3 3 3 3 3 3 3 3 3 3 3 3 3 3 3 3 3 3 3 3 3 3 3 3 3 3 3 3 3 3 3 3 3 3 3 3 3 3 3 3 3 3 3 3 3 3 3 3 3 3 3 3 3 3 3 3 3 3 3 3 3 3 3 3 3 3 3 3 3 3 3 3 3 3 3 3 3 3 3 3 3 3 3 3</vcount><p>127 127 389 171 171 0 96 96 106 96 96 106 171 171 0 162 162 36 96 96 106 162 162 36 43 43 108 43 43 108 162 162 36 158 158 72 84 84 717 216 216 723 215 215 711 17 17 711 124 124 574 92 92 638 43 43 108 158 158 72 44 44 642 44 44 642 158 158 72 79 79 685 79 79 685 158 158 72 71 71 675 71 71 675 158 158 72 74 74 420 74 74 420 158 158 72 153 153 74 162 162 36 171 171 0 161 161 37 171 171 0 180 180 8 161 161 37 144 144 35 175 175 11 172 172 1 83 83 718 216 216 723 84 84 717 84 84 717 215 215 711 6 6 712 17 17 711 92 92 638 10 10 647 92 92 638 124 124 574 99 99 576 96 96 106 128 128 390 127 127 389 106 106 391 128 128 390 96 96 106 44 44 642 79 79 685 19 19 650 19 19 650 79 79 685 14 14 698 71 71 675 80 80 686 79 79 685 71 71 675 74 74 420 56 56 667 74 74 420 153 153 74 121 121 77 121 121 77 153 153 74 146 146 62 161 161 37 180 180 8 150 150 51 150 150 51 180 180 8 133 133 30 133 133 30 180 180 8 35 35 24 35 35 24 180 180 8 36 36 14 39 39 17 175 175 11 144 144 35 39 39 17 144 144 35 40 40 27 62 62 559 67 67 725 52 52 670 185 185 706 216 216 723 83 83 718 89 89 705 185 185 706 83 83 718 6 6 712 189 189 710 84 84 717 5 5 709 189 189 710 6 6 712 10 10 647 92 92 638 24 24 648 24 24 648 92 92 638 91 91 639 99 99 576 108 108 577 92 92 638 99 99 576 116 116 575 100 100 548 100 100 548 116 116 575 115 115 547 106 106 391 130 130 481 128 128 390 105 105 482 130 130 481 106 106 391 95 95 392 106 106 391 96 96 106 19 19 650 112 112 640 44 44 642 23 23 649 112 112 640 19 19 650 13 13 697 19 19 650 14 14 698 14 14 698 79 79 685 20 20 699 79 79 685 190 190 700 20 20 699 71 71 675 86 86 701 80 80 686 71 71 675 186 186 702 86 86 701 56 56 667 72 72 676 71 71 675 55 55 668 72 72 676 56 56 667 74 74 420 121 121 77 76 76 421 121 121 77 146 146 62 122 122 78 122 122 78 146 146 62 143 143 65 153 153 74 193 193 61 146 146 62 157 157 60 193 193 61 153 153 74 149 149 50 161 161 37 150 150 51 133 133 30 195 195 52 150 150 51 133 133 30 196 196 53 195 195 52 35 35 24 134 134 31 133 133 30 35 35 24 165 165 25 134 134 31 180 180 8 201 201 15 36 36 14 179 179 9 201 201 15 180 180 8 39 39 17 176 176 10 175 175 11 39 39 17 198 198 16 176 176 10 144 144 35 168 168 26 40 40 27 167 167 32 168 168 26 144 144 35 119 119 80 138 138 66 137 137 67 119 119 80 141 141 79 138 138 66 51 51 550 62 62 559 52 52 670 48 48 678 58 58 669 52 52 670 47 47 677 58 58 669 48 48 678 97 97 106 170 170 0 126 126 389 163 163 36 170 170 0 97 97 106 42 42 108 163 163 36 97 97 106 159 159 72 163 163 36 42 42 108 85 85 717 214 214 711 69 69 723 93 93 638 125 125 574 16 16 711 45 45 642 159 159 72 42 42 108 78 78 685 159 159 72 45 45 642 70 70 675 159 159 72 78 78 685 75 75 420 159 159 72 70 70 675 152 152 74 159 159 72 75 75 420 160 160 37 170 170 0 163 163 36 160 160 37 181 181 8 170 170 0 174 174 11 221 221 35 173 173 1 82 82 718 85 85 717 69 69 723 7 7 712 214 214 711 85 85 717 11 11 647 93 93 638 16 16 711 98 98 576 125 125 574 93 93 638 126 126 389 129 129 390 97 97 106 97 97 106 129 129 390 107 107 391 18 18 650 78 78 685 45 45 642 15 15 698 78 78 685 18 18 650 78 78 685 81 81 686 70 70 675 57 57 667 75 75 420 70 70 675 120 120 77 152 152 74 75 75 420 147 147 62 152 152 74 120 120 77 151 151 51 181 181 8 160 160 37 132 132 30 181 181 8 151 151 51 34 34 24 181 181 8 132 132 30 37 37 14 181 181 8 34 34 24 38 38 17 221 221 35 174 174 11 41 41 27 221 221 35 38 38 17 53 53 670 66 66 725 63 63 559 69 69 723 184 184 706 82 82 718 82 82 718 184 184 706 88 88 705 85 85 717 188 188 710 7 7 712 7 7 712 188 188 710 4 4 709 25 25 648 93 93 638 11 11 647 90 90 639 93 93 638 25 25 648 93 93 638 109 109 577 98 98 576 101 101 548 117 117 575 98 98 576 114 114 547 117 117 575 101 101 548 129 129 390 131 131 481 107 107 391 107 107 391 131 131 481 104 104 482 97 97 106 107 107 391 94 94 392 45 45 642 113 113 640 18 18 650 18 18 650 113 113 640 22 22 649 15 15 698 18 18 650 12 12 697 21 21 699 78 78 685 15 15 698 21 21 699 191 191 700 78 78 685 81 81 686 87 87 701 70 70 675 87 87 701 187 187 702 70 70 675 70 70 675 73 73 676 57 57 667 57 57 667 73 73 676 54 54 668 77 77 421 120 120 77 75 75 420 123 123 78 147 147 62 120 120 77 142 142 65 147 147 62 123 123 78 147 147 62 192 192 61 152 152 74 152 152 74 192 192 61 156 156 60 151 151 51 160 160 37 148 148 50 151 151 51 194 194 52 132 132 30 194 194 52 197 197 53 132 132 30 132 132 30 135 135 31 34 34 24 135 135 31 164 164 25 34 34 24 37 37 14 200 200 15 181 181 8 181 181 8 200 200 15 178 178 9 174 174 11 177 177 10 38 38 17 177 177 10 199 199 16 38 38 17 169 169 26 221 221 35 41 41 27 166 166 32 221 221 35 169 169 26 136 136 67 139 139 66 118 118 80 139 139 66 140 140 79 118 118 80 53 53 670 63 63 559 50 50 550 53 53 670 59 59 669 49 49 678 49 49 678 59 59 669 46 46 677</p></polylist><polylist count="17" material="KITO_FL1"><input offset="0" semantic="VERTEX" source="#MAP02-0-Vtx"/><input offset="1" semantic="NORMAL" source="#MAP02-0-Normal"/><input offset="2" semantic="TEXCOORD" source="#MAP02-0-UV"/><vcount>3 3 3 3 3 3 4 4 4 3 3 3 3 3 3 3 3</vcount><p>355 355 45 357 357 33 352 352 44 357 357 33 365 365 30 352 352 44 308 308 39 319 319 35 316 316 34 308 308 39 316 316 34 309 309 38 312 312 42 322 322 67 313 313 43 315 315 64 322 322 67 312 312 42 267 267 549 270 270 667 268 268 670 262 262 550 248 248 431 264 264 420 267 267 549 260 260 559 251 251 80 255 255 77 257 257 421 248 248 431 231 231 678 239 239 675 222 222 688 222 222 688 239 239 675 226 226 687 225 225 714 231 231 678 222 222 688 225 225 714 237 237 725 231 231 678 239 239 675 246 246 723 226 226 687 226 226 687 246 246 723 245 245 724 229 229 713 237 237 725 225 225 714 229 229 713 245 245 724 237 237 725</p></polylist><polylist count="54" material="KITO_FL3"><input offset="0" semantic="VERTEX" source="#MAP02-0-Vtx"/><input offset="1" semantic="NORMAL" source="#MAP02-0-Normal"/><input offset="2" semantic="TEXCOORD" source="#MAP02-0-UV"/><vcount>4 4 4 4 4 4 4 4 4 4 4 4 4 4 4 4 4 4 4 4 4 4 4 4 4 4 4 4 4 4 4 4 4 4 4 4 4 4 4 4 4 4 4 4 4 4 4 4 4 4 4 4 4 4</vcount><p>648 648 324 650 650 96 649 649 95 647 647 325 626 626 400 628 628 401 627 627 145 624 624 141 609 609 399 611 611 401 614 614 144 610 610 137 608 608 399 612 612 401 613 613 144 607 607 137 600 600 399 604 604 401 606 606 144 599 599 137 602 602 399 603 603 401 605 605 144 601 601 137 594 594 399 595 595 401 598 598 144 593 593 137 591 591 399 596 596 401 597 597 144 592 592 137 588 588 400 589 589 401 590 590 145 587 587 141 575 575 339 579 579 341 582 582 144 576 576 137 569 569 399 572 572 401 571 571 145 568 568 137 570 570 399 574 574 401 573 573 145 567 567 137 546 546 150 547 547 118 548 548 394 545 545 402 529 529 424 535 535 426 536 536 215 532 532 211 522 522 473 523 523 480 524 524 332 521 521 326 505 505 423 511 511 425 512 512 214 508 508 210 495 495 357 500 500 358 499 499 237 498 498 234 481 481 361 486 486 362 485 485 258 484 484 256 474 474 459 476 476 460 475 475 289 473 473 286 455 455 257 461 461 585 460 460 586 456 456 260 429 429 247 436 436 242 435 435 249 434 434 251 427 427 618 434 434 184 435 435 181 428 428 615 421 421 121 433 433 606 432 432 614 422 422 162 430 430 247 432 432 227 433 433 213 431 431 242 411 411 337 420 420 127 417 417 126 412 412 336 413 413 194 416 416 347 419 419 349 406 406 196 381 381 73 386 386 37 388 388 36 383 383 72 377 377 51 380 380 50 381 381 73 373 373 74 383 383 253 388 388 599 387 387 600 384 384 254 385 385 492 387 387 323 388 388 322 386 386 491 379 379 522 385 385 82 386 386 81 380 380 521 381 381 93 383 383 412 384 384 413 382 382 94 373 373 236 381 381 445 382 382 446 374 374 238 376 376 291 378 378 157 377 377 147 371 371 288 378 378 409 379 379 92 380 380 91 377 377 408 353 353 44 363 363 62 359 359 63 354 354 45 363 363 433 362 362 434 369 369 202 359 359 199 343 343 122 349 349 607 348 348 613 344 344 148 342 342 222 347 347 148 346 346 122 328 328 216 333 333 455 348 348 148 349 349 122 334 334 450 335 335 266 346 346 562 347 347 563 336 336 274 341 341 223 345 345 217 343 343 267 344 344 275 332 332 148 331 331 122 340 340 216 330 330 222 329 329 222 339 339 216 338 338 266 337 337 274 336 336 617 337 337 183 338 338 182 335 335 616 332 332 613 333 333 148 334 334 122 331 331 607 289 289 108 291 291 107 292 292 641 286 286 642 291 291 145 300 300 115 301 301 636 292 292 637 276 276 100 303 303 97 281 281 334 280 280 331 283 283 69 282 282 68 302 302 180 277 277 179 38 38 137 199 199 186 198 198 187 39 39 141 172 172 580 175 175 141 174 174 137 173 173 579 36 36 417 201 201 411 200 200 410 37 37 416 150 150 415 195 195 370 194 194 369 151 151 414</p></polylist><polylist count="8" material="KITO_FL4"><input offset="0" semantic="VERTEX" source="#MAP02-0-Vtx"/><input offset="1" semantic="NORMAL" source="#MAP02-0-Normal"/><input offset="2" semantic="TEXCOORD" source="#MAP02-0-UV"/><vcount>4 4 4 4 4 4 4 4</vcount><p>458 458 4 462 462 12 461 461 13 455 455 5 440 440 683 443 443 715 446 446 716 437 437 684 428 428 29 435 435 19 433 433 18 421 421 28 389 389 569 395 395 382 398 398 381 393 393 568 334 334 693 349 349 707 343 343 708 346 346 695 334 334 693 335 335 694 338 338 646 331 331 645 295 295 634 301 301 635 300 300 105 298 298 104 281 281 383 282 282 570 285 285 571 278 278 384</p></polylist><polylist count="29" material="KITO_RF"><input offset="0" semantic="VERTEX" source="#MAP02-0-Vtx"/><input offset="1" semantic="NORMAL" source="#MAP02-0-Normal"/><input offset="2" semantic="TEXCOORD" source="#MAP02-0-UV"/><vcount>4 4 4 4 4 4 4 4 3 3 4 3 3 3 3 4 4 4 4 4 4 3 3 3 3 3 3 3 3</vcount><p>651 651 714 654 654 713 653 653 687 652 652 688 652 652 688 653 653 687 654 654 713 651 651 714 619 619 64 622 622 63 621 621 33 620 620 34 456 456 1 460 460 11 463 463 8 457 457 0 438 438 686 445 445 718 444 444 717 439 439 685 384 384 72 387 387 36 385 385 37 382 382 73 374 374 74 382 382 73 379 379 50 378 378 51 367 367 44 370 370 45 369 369 63 362 362 62 368 368 33 370 370 45 367 367 44 366 366 30 368 368 33 367 367 44 325 325 43 326 326 42 327 327 38 317 317 39 317 317 39 324 324 34 318 318 35 317 317 39 327 327 38 324 324 34 321 321 67 326 326 42 325 325 43 323 323 64 326 326 42 321 321 67 293 293 641 296 296 638 299 299 106 290 290 107 287 287 642 293 293 641 290 290 107 288 288 108 279 279 392 284 284 577 283 283 576 280 280 391 263 263 550 269 269 670 271 271 667 266 266 549 261 261 559 266 266 549 265 265 420 249 249 431 249 249 431 256 256 421 254 254 77 250 250 80 223 223 688 238 238 675 232 232 678 227 227 687 238 238 675 223 223 688 223 223 688 232 232 678 224 224 714 232 232 678 236 236 725 224 224 714 227 227 687 247 247 723 238 238 675 244 244 724 247 247 723 227 227 687 224 224 714 236 236 725 230 230 713 236 236 725 244 244 724 230 230 713</p></polylist><polylist count="28" material="KITO_W2"><input offset="0" semantic="VERTEX" source="#MAP02-0-Vtx"/><input offset="1" semantic="NORMAL" source="#MAP02-0-Normal"/><input offset="2" semantic="TEXCOORD" source="#MAP02-0-UV"/><vcount>4 4 4 4 4 4 4 4 4 4 4 4 4 4 4 4 4 4 4 4 4 4 4 4 4 4 4 4</vcount><p>644 644 564 645 645 565 646 646 102 643 643 99 641 641 244 640 640 250 642 642 252 639 639 248 633 633 561 637 637 156 636 636 119 634 634 554 635 635 88 638 638 87 636 636 239 637 637 240 618 618 346 620 620 350 621 621 165 617 617 120 616 616 346 622 622 350 619 619 165 615 615 120 577 577 339 580 580 341 581 581 144 578 578 137 493 493 195 496 496 191 497 497 345 494 494 348 483 483 363 488 488 366 487 487 273 482 482 263 457 457 582 463 463 163 462 462 122 458 458 578 444 444 163 443 443 123 452 452 397 442 442 406 439 439 387 441 441 101 451 451 98 440 440 386 397 397 315 404 404 90 403 403 89 398 398 314 401 401 122 403 403 396 404 404 407 402 402 172 393 393 122 401 401 335 402 402 342 394 394 172 356 356 248 366 366 228 365 365 218 364 364 244 314 314 377 325 325 380 317 317 165 307 307 120 322 322 507 321 321 508 325 325 317 313 313 316 319 319 624 318 318 630 324 324 277 316 316 268 320 320 344 321 321 230 322 322 229 306 306 343 317 317 479 318 318 102 319 319 99 308 308 476 240 240 175 242 242 278 243 243 282 241 241 178 234 234 119 240 240 527 241 241 533 235 235 156 136 136 137 213 213 493 183 183 494 137 137 141 183 183 496 213 213 495 212 212 558 182 182 559 145 145 627 220 220 628 182 182 557 212 212 556 186 186 270 205 205 137 204 204 131 187 187 269 184 184 364 203 203 398 202 202 399 185 185 365</p></polylist><polylist count="94" material="KITO_W4"><input offset="0" semantic="VERTEX" source="#MAP02-0-Vtx"/><input offset="1" semantic="NORMAL" source="#MAP02-0-Normal"/><input offset="2" semantic="TEXCOORD" source="#MAP02-0-UV"/><vcount>4 4 4 4 4 4 4 4 4 4 4 4 4 4 4 4 4 4 4 4 4 4 4 4 4 4 4 4 4 4 4 4 4 4 4 4 4 4 4 4 4 4 4 4 4 4 4 4 4 4 4 4 4 4 4 4 4 4 4 4 4 4 4 4 4 4 4 4 4 4 4 4 4 4 4 4 4 4 4 4 4 4 4 4 4 4 4 4 4 4 4 4 4 4</vcount><p>623 623 400 629 629 401 630 630 145 625 625 141 583 583 400 585 585 401 586 586 145 584 584 141 560 560 340 565 565 341 566 566 145 562 562 141 559 559 339 563 563 341 564 564 144 561 561 137 556 556 477 557 557 329 558 558 327 555 555 474 542 542 438 543 543 246 544 544 243 541 541 436 518 518 458 519 519 281 520 520 279 517 517 457 468 468 437 469 469 245 470 470 241 467 467 435 422 422 24 432 432 14 434 434 17 427 427 27 426 426 188 427 427 163 428 428 122 425 425 185 422 422 188 423 423 163 424 424 122 421 421 185 408 408 341 409 409 145 410 410 137 407 407 339 373 373 290 374 374 292 375 375 160 372 372 152 361 361 203 362 362 166 363 363 154 360 360 200 358 358 415 354 354 419 359 359 145 350 350 114 357 357 581 355 355 198 358 358 197 351 351 580 353 353 444 354 354 235 355 355 233 352 352 443 347 347 698 344 344 712 348 348 711 333 333 696 332 332 647 337 337 650 336 336 697 333 333 696 310 310 487 309 309 488 316 316 145 305 305 141 304 304 517 315 315 518 312 312 321 311 311 320 312 312 612 313 313 145 314 314 139 311 311 611 308 308 612 309 309 145 310 310 139 307 307 611 283 283 404 284 284 159 285 285 117 282 282 393 279 279 405 280 280 161 281 281 121 278 278 395 266 266 605 271 271 148 270 270 118 267 267 601 268 268 118 274 274 212 275 275 222 269 269 148 271 271 275 272 272 223 273 273 213 270 270 265 262 262 118 268 268 601 269 269 605 263 263 148 256 256 526 265 265 148 264 264 118 257 257 523 265 265 467 266 266 148 267 267 118 264 264 463 260 260 264 262 262 541 263 263 543 261 261 274 248 248 118 260 260 463 261 261 467 249 249 148 250 250 313 258 258 177 259 259 176 251 251 312 254 254 472 256 256 190 257 257 189 255 255 471 253 253 274 254 254 84 255 255 83 252 252 261 249 249 469 250 250 151 251 251 123 248 248 464 224 224 519 230 230 146 229 229 112 225 225 512 226 226 112 229 229 551 230 230 560 227 227 146 222 222 111 226 226 511 227 227 513 223 223 114 223 223 537 224 224 86 225 225 85 222 222 536 179 179 360 180 180 141 181 181 137 178 178 359 175 175 539 176 176 502 177 177 501 174 174 538 171 171 540 172 172 140 173 173 134 170 170 538 40 40 187 168 168 141 169 169 137 41 41 186 30 30 294 166 166 308 167 167 309 31 31 295 34 34 137 164 164 186 165 165 187 35 35 141 158 158 592 162 162 114 163 163 113 159 159 591 148 148 441 160 160 597 161 161 598 149 149 442 154 154 415 158 158 114 159 159 113 155 155 414 152 152 113 156 156 284 157 157 285 153 153 114 153 153 415 154 154 114 155 155 113 152 152 414 149 149 442 150 150 232 151 151 231 148 148 441 28 28 415 146 146 114 147 147 113 29 29 414 32 32 611 220 220 141 145 145 137 33 33 610 26 26 497 142 142 632 143 143 633 27 27 498 118 118 131 140 140 310 141 141 311 119 119 137 137 137 664 138 138 654 139 139 653 136 136 663 133 133 658 134 134 656 135 135 655 132 132 657 128 128 516 130 130 486 131 131 484 129 129 515 127 127 516 128 128 137 129 129 131 126 126 515 116 116 516 218 218 137 219 219 131 117 117 515 98 98 131 109 109 398 108 108 399 99 99 137 76 76 466 121 121 137 120 120 131 77 77 465 121 121 399 122 122 355 123 123 354 120 120 398 60 60 131 118 118 465 119 119 466 61 61 137 44 44 620 111 111 553 110 110 552 45 45 619 94 94 131 107 107 398 106 106 399 95 95 137 115 115 339 116 116 137 117 117 131 114 114 338 111 111 531 112 112 505 113 113 504 110 110 529 92 92 672 108 108 632 109 109 631 93 93 671 42 42 113 103 103 461 102 102 462 43 43 114 105 105 339 106 106 137 107 107 131 104 104 338 96 96 603 102 102 453 103 103 451 97 97 602 99 99 516 100 100 486 101 101 484 98 98 515 95 95 399 96 96 137 97 97 131 94 94 398 91 91 365 92 92 137 93 93 131 90 90 364 82 82 131 88 88 452 89 89 454 83 83 137 80 80 632 86 86 588 87 87 587 81 81 631 83 83 530 84 84 135 85 85 129 82 82 529 79 79 530 80 80 135 81 81 129 78 78 529 74 74 596 76 76 440 77 77 439 75 75 595 64 64 466 74 74 137 75 75 131 65 65 465 71 71 626 72 72 429 73 73 427 70 70 625 48 48 704 67 67 589 66 66 590 49 49 703 67 67 627 68 68 137 217 217 131 66 66 625 50 50 130 63 63 524 62 62 525 51 51 136 56 56 604 64 64 138 65 65 132 57 57 602 61 61 466 62 62 137 63 63 131 60 60 465 52 52 454 58 58 430 59 59 428 53 53 452 55 55 220 56 56 137 57 57 131 54 54 219 51 51 604 52 52 138 53 53 132 50 50 602 47 47 220 48 48 137 49 49 131 46 46 219 43 43 644 44 44 114 45 45 113 42 42 643</p></polylist><polylist count="39" material="KITO_W5"><input offset="0" semantic="VERTEX" source="#MAP02-0-Vtx"/><input offset="1" semantic="NORMAL" source="#MAP02-0-Normal"/><input offset="2" semantic="TEXCOORD" source="#MAP02-0-UV"/><vcount>4 4 4 4 4 4 4 4 4 4 4 4 4 4 4 4 4 4 4 4 4 4 4 4 4 4 4 4 4 4 4 4 4 4 4 4 4 4 4</vcount><p>655 655 155 658 658 116 657 657 353 656 656 356 631 631 573 633 633 207 634 634 206 632 632 572 531 531 394 533 533 403 534 534 153 530 530 118 507 507 422 509 509 432 510 510 221 506 506 209 462 462 378 463 463 379 464 464 293 454 454 287 459 459 368 460 460 163 461 461 122 453 453 367 456 456 546 457 457 201 458 458 192 455 455 545 445 445 478 449 449 259 450 450 255 446 446 475 437 437 98 447 447 447 448 448 448 438 438 101 444 444 534 445 445 163 446 446 123 443 443 528 438 438 544 439 439 201 440 440 193 437 437 542 405 405 341 418 418 145 415 415 137 414 414 339 395 395 97 399 399 328 400 400 333 396 396 103 396 396 520 397 397 172 398 398 122 395 395 514 389 389 122 393 393 514 394 394 520 390 390 172 390 390 388 391 391 333 392 392 328 389 389 385 365 365 583 366 366 584 367 367 205 352 352 204 284 284 506 296 296 164 295 295 124 285 285 503 299 299 167 298 298 142 300 300 532 290 290 535 278 278 262 298 298 449 299 299 456 279 279 276 294 294 225 297 297 208 295 295 373 296 296 374 286 286 149 292 292 468 293 293 470 287 287 158 288 288 490 290 290 226 291 291 224 289 289 489 287 287 652 288 288 283 289 289 280 286 286 651 231 231 119 237 237 665 236 236 666 232 232 156 235 235 629 236 236 156 237 237 119 234 234 623 228 228 330 233 233 327 231 231 351 232 232 352 170 170 486 181 181 632 180 180 633 171 171 487 160 160 659 163 163 679 162 162 680 161 161 660 196 196 376 211 211 319 210 210 318 197 197 375 146 146 662 193 193 660 192 192 659 147 147 661 132 132 137 210 210 566 211 211 567 133 133 141 126 126 131 209 209 338 208 208 339 127 127 137 206 206 399 208 208 137 209 209 131 207 207 398 207 207 484 219 219 515 218 218 516 206 206 486 70 70 131 204 204 555 205 205 556 71 71 137 84 84 556 189 189 486 188 188 484 85 85 555 78 78 131 191 191 398 190 190 399 79 79 137 202 202 485 203 203 483 217 217 621 68 68 622</p></polylist><polylist count="54" material="MTL_TEX2"><input offset="0" semantic="VERTEX" source="#MAP02-0-Vtx"/><input offset="1" semantic="NORMAL" source="#MAP02-0-Normal"/><input offset="2" semantic="TEXCOORD" source="#MAP02-0-UV"/><vcount>4 4 4 4 4 4 4 4 4 4 4 4 4 4 4 4 4 4 4 4 4 4 4 4 4 4 4 4 4 4 4 4 4 4 4 4 4 4 4 4 4 4 4 4 4 4 4 4 4 4 4 4 4 4</vcount><p>623 623 22 625 625 23 626 626 21 624 624 20 607 607 728 609 609 729 610 610 720 608 608 719 599 599 682 602 602 674 601 601 673 600 600 681 592 592 510 594 594 509 593 593 593 591 591 594 584 584 2 588 588 6 587 587 7 583 583 3 576 576 726 577 577 727 578 578 722 575 575 721 569 569 690 568 568 689 570 570 691 567 567 692 561 561 71 560 560 59 562 562 58 559 559 70 554 554 690 555 555 692 558 558 691 553 553 689 550 550 298 553 553 304 558 558 170 552 552 123 549 549 299 555 555 305 554 554 171 551 551 125 544 544 22 548 548 20 547 547 21 541 541 23 538 538 298 548 548 304 544 544 170 537 537 123 539 539 299 541 541 305 547 547 171 540 540 125 529 529 728 532 532 719 531 531 720 530 530 729 528 528 299 531 531 303 532 532 169 526 526 125 525 525 298 529 529 302 530 530 168 527 527 123 520 520 594 522 522 593 521 521 509 517 517 510 515 515 298 522 522 302 520 520 168 513 513 123 514 514 299 517 517 303 521 521 169 516 516 125 505 505 682 508 508 681 507 507 673 506 506 674 503 503 298 507 507 302 508 508 168 502 502 123 501 501 299 505 505 303 506 506 169 504 504 125 495 495 58 498 498 59 497 497 71 496 496 70 491 491 299 497 497 303 498 498 169 490 490 125 492 492 298 495 495 302 496 496 168 489 489 123 481 481 726 484 484 721 483 483 722 482 482 727 480 480 299 483 483 303 484 484 169 477 477 125 478 478 298 481 481 302 482 482 168 479 479 123 470 470 6 474 474 2 473 473 3 467 467 7 466 466 298 474 474 304 470 470 170 472 472 123 471 471 299 467 467 305 473 473 171 465 465 125 412 412 56 417 417 48 416 416 49 413 413 57 410 410 56 414 414 57 415 415 49 407 407 48 415 415 304 416 416 306 417 417 173 407 407 170 412 412 307 413 413 174 414 414 171 410 410 305 178 178 143 200 200 300 201 201 301 179 179 145 176 176 301 198 198 145 199 199 143 177 177 300 134 134 301 165 165 145 164 164 143 135 135 300 166 166 143 169 169 300 168 168 301 167 167 145 195 195 297 196 196 110 197 197 109 194 194 296 156 156 109 192 192 296 193 193 297 157 157 110 138 138 301 141 141 145 140 140 143 139 139 300 122 122 301 143 143 145 142 142 143 123 123 300 100 100 301 115 115 145 114 114 143 101 101 300 104 104 143 131 131 300 130 130 301 105 105 145 24 24 301 91 91 145 90 90 143 25 25 300 22 22 143 113 113 300 112 112 301 23 23 145 20 20 301 190 190 145 191 191 143 21 21 300 4 4 143 188 188 300 189 189 301 5 5 145 86 86 301 186 186 145 187 187 143 87 87 300 88 88 143 184 184 300 185 185 301 89 89 145 54 54 143 73 73 300 72 72 301 55 55 145 46 46 143 59 59 300 58 58 301 47 47 145</p></polylist><polylist count="1" material="PIT"><input offset="0" semantic="VERTEX" source="#MAP02-0-Vtx"/><input offset="1" semantic="NORMAL" source="#MAP02-0-Normal"/><input offset="2" semantic="TEXCOORD" source="#MAP02-0-UV"/><vcount>4</vcount><p>394 394 574 397 397 389 396 396 390 390 390 575</p></polylist><polylist count="2" material="SWG"><input offset="0" semantic="VERTEX" source="#MAP02-0-Vtx"/><input offset="1" semantic="NORMAL" source="#MAP02-0-Normal"/><input offset="2" semantic="TEXCOORD" source="#MAP02-0-UV"/><vcount>4 4</vcount><p>310 310 46 311 311 54 314 314 55 307 307 47 0 0 76 3 3 41 2 2 40 1 1 75</p></polylist></mesh></geometry></library_geometries>
<library_visual_scenes><visual_scene id="Scene" name="Scene"><node layer="L1" id="MAP02-0L1" name="MAP02-0"><translate sid="translate">0.00000 0.00000 0.00000</translate>
<rotate sid="rotateZ">0 0 1 0.00000</rotate><rotate sid="rotateY">0 1 0 0.00000</rotate><rotate sid="rotateX">1 0 0 0.00000</rotate><scale sid="scale">1.0000 1.0000 1.0000</scale><instance_geometry url="#MAP02-0"><bind_material><technique_common><instance_material symbol="Default" target="#Default"><bind_vertex_input input_semantic="TEXCOORD" input_set="1" semantic="CHANNEL1"/></instance_material><instance_material symbol="F_SKY1" target="#F_SKY1"><bind_vertex_input input_semantic="TEXCOORD" input_set="1" semantic="CHANNEL1"/></instance_material><instance_material symbol="KITO_FL1" target="#KITO_FL1"><bind_vertex_input input_semantic="TEXCOORD" input_set="1" semantic="CHANNEL1"/></instance_material><instance_material symbol="KITO_FL3" target="#KITO_FL3"><bind_vertex_input input_semantic="TEXCOORD" input_set="1" semantic="CHANNEL1"/></instance_material><instance_material symbol="KITO_FL4" target="#KITO_FL4"><bind_vertex_input input_semantic="TEXCOORD" input_set="1" semantic="CHANNEL1"/></instance_material><instance_material symbol="KITO_RF" target="#KITO_RF"><bind_vertex_input input_semantic="TEXCOORD" input_set="1" semantic="CHANNEL1"/></instance_material><instance_material symbol="KITO_W2" target="#KITO_W2"><bind_vertex_input input_semantic="TEXCOORD" input_set="1" semantic="CHANNEL1"/></instance_material><instance_material symbol="KITO_W4" target="#KITO_W4"><bind_vertex_input input_semantic="TEXCOORD" input_set="1" semantic="CHANNEL1"/></instance_material><instance_material symbol="KITO_W5" target="#KITO_W5"><bind_vertex_input input_semantic="TEXCOORD" input_set="1" semantic="CHANNEL1"/></instance_material><instance_material symbol="MTL_TEX2" target="#MTL_TEX2"><bind_vertex_input input_semantic="TEXCOORD" input_set="1" semantic="CHANNEL1"/></instance_material><instance_material symbol="PIT" target="#PIT"><bind_vertex_input input_semantic="TEXCOORD" input_set="1" semantic="CHANNEL1"/></instance_material><instance_material symbol="SWG" target="#SWG"><bind_vertex_input input_semantic="TEXCOORD" input_set="1" semantic="CHANNEL1"/></instance_material></technique_common></bind_material></instance_geometry></node></visual_scene></library_visual_scenes>
<scene><instance_visual_scene url="#Scene"/></scene>
</COLLADA>